%YAML 1.1
%TAG !u! tag:unity3d.com,2011:
--- !u!1 &1734572081990470144
GameObject:
  m_ObjectHideFlags: 0
  m_CorrespondingSourceObject: {fileID: 0}
  m_PrefabInstance: {fileID: 0}
  m_PrefabAsset: {fileID: 0}
  serializedVersion: 6
  m_Component:
  - component: {fileID: 1734572081990702624}
  m_Layer: 0
  m_Name: RigHair2
  m_TagString: Untagged
  m_Icon: {fileID: 0}
  m_NavMeshLayer: 0
  m_StaticEditorFlags: 0
  m_IsActive: 1
--- !u!4 &1734572081990702624
Transform:
  m_ObjectHideFlags: 0
  m_CorrespondingSourceObject: {fileID: 0}
  m_PrefabInstance: {fileID: 0}
  m_PrefabAsset: {fileID: 0}
  m_GameObject: {fileID: 1734572081990470144}
  m_LocalRotation: {x: -1.5750827e-14, y: 0.0000000117003, z: 0.060091555, w: 0.9981929}
  m_LocalPosition: {x: -0.13268265, y: 0, z: 0}
  m_LocalScale: {x: 1, y: 1, z: 1}
  m_Children: []
  m_Father: {fileID: 1734572081990702636}
  m_RootOrder: 0
  m_LocalEulerAnglesHint: {x: 0, y: 0, z: 0}
--- !u!1 &1734572081990470146
GameObject:
  m_ObjectHideFlags: 0
  m_CorrespondingSourceObject: {fileID: 0}
  m_PrefabInstance: {fileID: 0}
  m_PrefabAsset: {fileID: 0}
  serializedVersion: 6
  m_Component:
  - component: {fileID: 1734572081990702626}
  m_Layer: 0
  m_Name: RigHair2Gizmo
  m_TagString: Untagged
  m_Icon: {fileID: 0}
  m_NavMeshLayer: 0
  m_StaticEditorFlags: 0
  m_IsActive: 1
--- !u!4 &1734572081990702626
Transform:
  m_ObjectHideFlags: 0
  m_CorrespondingSourceObject: {fileID: 0}
  m_PrefabInstance: {fileID: 0}
  m_PrefabAsset: {fileID: 0}
  m_GameObject: {fileID: 1734572081990470146}
  m_LocalRotation: {x: 0.46205488, y: -0.535262, z: -0.4620548, w: 0.5352619}
  m_LocalPosition: {x: -0.00000012248259, y: 2.3255835, z: -0.016040383}
  m_LocalScale: {x: 1, y: 1, z: 1}
  m_Children: []
  m_Father: {fileID: 1734572081990702632}
  m_RootOrder: 2
  m_LocalEulerAnglesHint: {x: 0, y: 0, z: 0}
--- !u!1 &1734572081990470148
GameObject:
  m_ObjectHideFlags: 0
  m_CorrespondingSourceObject: {fileID: 0}
  m_PrefabInstance: {fileID: 0}
  m_PrefabAsset: {fileID: 0}
  serializedVersion: 6
  m_Component:
  - component: {fileID: 1734572081990702628}
  m_Layer: 0
  m_Name: RigHead
  m_TagString: Untagged
  m_Icon: {fileID: 0}
  m_NavMeshLayer: 0
  m_StaticEditorFlags: 0
  m_IsActive: 1
--- !u!4 &1734572081990702628
Transform:
  m_ObjectHideFlags: 0
  m_CorrespondingSourceObject: {fileID: 0}
  m_PrefabInstance: {fileID: 0}
  m_PrefabAsset: {fileID: 0}
  m_GameObject: {fileID: 1734572081990470148}
  m_LocalRotation: {x: -0.00000017617111, y: -0.00000034665135, z: 0.19882894, w: 0.98003423}
  m_LocalPosition: {x: -0.16831298, y: 0, z: 0}
  m_LocalScale: {x: 0.99999976, y: 1.0000006, z: 1.0000001}
  m_Children:
  - {fileID: 1734572081990702636}
  - {fileID: 1734572081990702648}
  m_Father: {fileID: 1734572081990702700}
  m_RootOrder: 0
  m_LocalEulerAnglesHint: {x: 0, y: 0, z: 0}
--- !u!1 &1734572081990470150
GameObject:
  m_ObjectHideFlags: 0
  m_CorrespondingSourceObject: {fileID: 0}
  m_PrefabInstance: {fileID: 0}
  m_PrefabAsset: {fileID: 0}
  serializedVersion: 6
  m_Component:
  - component: {fileID: 1734572081990702630}
  m_Layer: 0
  m_Name: RigHeadGizmo
  m_TagString: Untagged
  m_Icon: {fileID: 0}
  m_NavMeshLayer: 0
  m_StaticEditorFlags: 0
  m_IsActive: 1
--- !u!4 &1734572081990702630
Transform:
  m_ObjectHideFlags: 0
  m_CorrespondingSourceObject: {fileID: 0}
  m_PrefabInstance: {fileID: 0}
  m_PrefabAsset: {fileID: 0}
  m_GameObject: {fileID: 1734572081990470150}
  m_LocalRotation: {x: 0.50000006, y: -0.50000006, z: -0.49999997, w: 0.49999997}
  m_LocalPosition: {x: -0.00000012369038, y: 1.7945898, z: -0.043670256}
  m_LocalScale: {x: 1, y: 1, z: 1}
  m_Children: []
  m_Father: {fileID: 1734572081990702632}
  m_RootOrder: 3
  m_LocalEulerAnglesHint: {x: 0, y: 0, z: 0}
--- !u!1 &1734572081990470152
GameObject:
  m_ObjectHideFlags: 0
  m_CorrespondingSourceObject: {fileID: 0}
  m_PrefabInstance: {fileID: 0}
  m_PrefabAsset: {fileID: 0}
  serializedVersion: 6
  m_Component:
  - component: {fileID: 1734572081990702632}
  - component: {fileID: 1734572081997904328}
  - component: {fileID: 5648279403563285547}
  - component: {fileID: 4585580917176792893}
  - component: {fileID: 2511156019820306764}
  m_Layer: 0
  m_Name: Shadow
  m_TagString: Untagged
  m_Icon: {fileID: 0}
  m_NavMeshLayer: 0
  m_StaticEditorFlags: 0
  m_IsActive: 1
--- !u!4 &1734572081990702632
Transform:
  m_ObjectHideFlags: 0
  m_CorrespondingSourceObject: {fileID: 0}
  m_PrefabInstance: {fileID: 0}
  m_PrefabAsset: {fileID: 0}
  m_GameObject: {fileID: 1734572081990470152}
  m_LocalRotation: {x: 0, y: 0, z: 0, w: 1}
  m_LocalPosition: {x: 0, y: 0, z: 0}
  m_LocalScale: {x: 1, y: 1, z: 1}
  m_Children:
  - {fileID: 1734572081990702634}
  - {fileID: 1734572081990702638}
  - {fileID: 1734572081990702626}
  - {fileID: 1734572081990702630}
  - {fileID: 1734572081990702650}
  - {fileID: 1734572081990702654}
  - {fileID: 1734572081990702642}
  - {fileID: 1734572081990702608}
  - {fileID: 1734572081990702696}
  - {fileID: 1734572081990702702}
  - {fileID: 1734572081990702688}
  - {fileID: 1734572081990702692}
  - {fileID: 1734572081990702712}
  - {fileID: 1734572081990702662}
  - {fileID: 1734572081990702682}
  - {fileID: 1734572081990702674}
  - {fileID: 1734572081990703020}
  - {fileID: 6882535907232063178}
  m_Father: {fileID: 0}
  m_RootOrder: 0
  m_LocalEulerAnglesHint: {x: 0, y: 0, z: 0}
--- !u!95 &1734572081997904328
Animator:
  serializedVersion: 3
  m_ObjectHideFlags: 0
  m_CorrespondingSourceObject: {fileID: 0}
  m_PrefabInstance: {fileID: 0}
  m_PrefabAsset: {fileID: 0}
  m_GameObject: {fileID: 1734572081990470152}
  m_Enabled: 1
  m_Avatar: {fileID: 9000000, guid: 5108a7df5817a5a42a6b0c8a811fb5dd, type: 3}
  m_Controller: {fileID: 9100000, guid: 608ad740efd0d3f4c9f5edc590a56b08, type: 2}
  m_CullingMode: 1
  m_UpdateMode: 0
  m_ApplyRootMotion: 0
  m_LinearVelocityBlending: 0
  m_WarningMessage: 
  m_HasTransformHierarchy: 1
  m_AllowConstantClipSamplingOptimization: 1
  m_KeepAnimatorControllerStateOnDisable: 0
--- !u!114 &5648279403563285547
MonoBehaviour:
  m_ObjectHideFlags: 0
  m_CorrespondingSourceObject: {fileID: 0}
  m_PrefabInstance: {fileID: 0}
  m_PrefabAsset: {fileID: 0}
  m_GameObject: {fileID: 1734572081990470152}
  m_Enabled: 1
  m_EditorHideFlags: 0
  m_Script: {fileID: 11500000, guid: 0421107a47118fa41b659e71f3bf01a1, type: 3}
  m_Name: 
  m_EditorClassIdentifier: 
  randomResist: 0
  hp: 0
  maxHp: 4
  resist: 2
  hpBarBG: {fileID: 6882535907232063178}
  hpBarImage: {fileID: 0}
  deathParticle: {fileID: 125216, guid: aae21d2e6cefc7b4ba89c4c6e2c2440c, type: 3}
  rendererMaterial: {fileID: 1734572081993647880}
  target: {fileID: 0}
  money: {x: 0, y: 0}
  cameraController: {fileID: 0}
  canvasAnimator: {fileID: 0}
--- !u!114 &4585580917176792893
MonoBehaviour:
  m_ObjectHideFlags: 0
  m_CorrespondingSourceObject: {fileID: 0}
  m_PrefabInstance: {fileID: 0}
  m_PrefabAsset: {fileID: 0}
  m_GameObject: {fileID: 1734572081990470152}
  m_Enabled: 1
  m_EditorHideFlags: 0
  m_Script: {fileID: 11500000, guid: e371d73b3b2592a42b81188fe947f45f, type: 3}
  m_Name: 
  m_EditorClassIdentifier: 
  randomSpawn: 1
  useThrowProcess: 0
  moveType: 2
  player: {fileID: 0}
  speedMove: 0.45
  speedSpawn: 5
  spellProjectilePrefab: {fileID: 0}
  spellProjectilePoint: {fileID: 0}
--- !u!136 &2511156019820306764
CapsuleCollider:
  m_ObjectHideFlags: 0
  m_CorrespondingSourceObject: {fileID: 0}
  m_PrefabInstance: {fileID: 0}
  m_PrefabAsset: {fileID: 0}
  m_GameObject: {fileID: 1734572081990470152}
  m_Material: {fileID: 0}
  m_IsTrigger: 0
  m_Enabled: 1
  m_Radius: 0.45
  m_Height: 2.3
  m_Direction: 1
  m_Center: {x: 0, y: 1.3, z: 0}
--- !u!1 &1734572081990470154
GameObject:
  m_ObjectHideFlags: 0
  m_CorrespondingSourceObject: {fileID: 0}
  m_PrefabInstance: {fileID: 0}
  m_PrefabAsset: {fileID: 0}
  serializedVersion: 6
  m_Component:
  - component: {fileID: 1734572081990702634}
  m_Layer: 0
  m_Name: Rig
  m_TagString: Untagged
  m_Icon: {fileID: 0}
  m_NavMeshLayer: 0
  m_StaticEditorFlags: 0
  m_IsActive: 1
--- !u!4 &1734572081990702634
Transform:
  m_ObjectHideFlags: 0
  m_CorrespondingSourceObject: {fileID: 0}
  m_PrefabInstance: {fileID: 0}
  m_PrefabAsset: {fileID: 0}
  m_GameObject: {fileID: 1734572081990470154}
  m_LocalRotation: {x: 0.50000006, y: -0.50000006, z: -0.49999997, w: 0.49999997}
  m_LocalPosition: {x: -0, y: 0, z: 0}
  m_LocalScale: {x: 1, y: 1, z: 1}
  m_Children: []
  m_Father: {fileID: 1734572081990702632}
  m_RootOrder: 0
  m_LocalEulerAnglesHint: {x: 0, y: 0, z: 0}
--- !u!1 &1734572081990470156
GameObject:
  m_ObjectHideFlags: 0
  m_CorrespondingSourceObject: {fileID: 0}
  m_PrefabInstance: {fileID: 0}
  m_PrefabAsset: {fileID: 0}
  serializedVersion: 6
  m_Component:
  - component: {fileID: 1734572081990702636}
  m_Layer: 0
  m_Name: RigHair1
  m_TagString: Untagged
  m_Icon: {fileID: 0}
  m_NavMeshLayer: 0
  m_StaticEditorFlags: 0
  m_IsActive: 1
--- !u!4 &1734572081990702636
Transform:
  m_ObjectHideFlags: 0
  m_CorrespondingSourceObject: {fileID: 0}
  m_PrefabInstance: {fileID: 0}
  m_PrefabAsset: {fileID: 0}
  m_GameObject: {fileID: 1734572081990470156}
  m_LocalRotation: {x: -2.2609573e-15, y: 0.0000000025592373, z: 0.013144425, w: 0.99991363}
  m_LocalPosition: {x: -0.3983569, y: 0.031117734, z: -0.0000000060588534}
  m_LocalScale: {x: 1, y: 1, z: 1}
  m_Children:
  - {fileID: 1734572081990702624}
  m_Father: {fileID: 1734572081990702628}
  m_RootOrder: 0
  m_LocalEulerAnglesHint: {x: 0, y: 0, z: 0}
--- !u!1 &1734572081990470158
GameObject:
  m_ObjectHideFlags: 0
  m_CorrespondingSourceObject: {fileID: 0}
  m_PrefabInstance: {fileID: 0}
  m_PrefabAsset: {fileID: 0}
  serializedVersion: 6
  m_Component:
  - component: {fileID: 1734572081990702638}
  m_Layer: 0
  m_Name: RigHair1Gizmo
  m_TagString: Untagged
  m_Icon: {fileID: 0}
  m_NavMeshLayer: 0
  m_StaticEditorFlags: 0
  m_IsActive: 1
--- !u!4 &1734572081990702638
Transform:
  m_ObjectHideFlags: 0
  m_CorrespondingSourceObject: {fileID: 0}
  m_PrefabInstance: {fileID: 0}
  m_PrefabAsset: {fileID: 0}
  m_GameObject: {fileID: 1734572081990470158}
  m_LocalRotation: {x: 0.4933846, y: -0.5065291, z: -0.4933845, w: 0.50652903}
  m_LocalPosition: {x: -0.00000012233016, y: 2.1929467, z: -0.01255259}
  m_LocalScale: {x: 1, y: 1, z: 1}
  m_Children: []
  m_Father: {fileID: 1734572081990702632}
  m_RootOrder: 1
  m_LocalEulerAnglesHint: {x: 0, y: 0, z: 0}
--- !u!1 &1734572081990470160
GameObject:
  m_ObjectHideFlags: 0
  m_CorrespondingSourceObject: {fileID: 0}
  m_PrefabInstance: {fileID: 0}
  m_PrefabAsset: {fileID: 0}
  serializedVersion: 6
  m_Component:
  - component: {fileID: 1734572081990702640}
  m_Layer: 0
  m_Name: RigLArm2
  m_TagString: Untagged
  m_Icon: {fileID: 0}
  m_NavMeshLayer: 0
  m_StaticEditorFlags: 0
  m_IsActive: 1
--- !u!4 &1734572081990702640
Transform:
  m_ObjectHideFlags: 0
  m_CorrespondingSourceObject: {fileID: 0}
  m_PrefabInstance: {fileID: 0}
  m_PrefabAsset: {fileID: 0}
  m_GameObject: {fileID: 1734572081990470160}
  m_LocalRotation: {x: 0.1576931, y: 0.17955816, z: -0.13025911, w: 0.96224964}
  m_LocalPosition: {x: -0.51323384, y: 0.000000047683713, z: -0.00000045776366}
  m_LocalScale: {x: 0.99999946, y: 1, z: 1.0000006}
  m_Children:
  - {fileID: 1734572081990702622}
  m_Father: {fileID: 1734572081990702652}
  m_RootOrder: 0
  m_LocalEulerAnglesHint: {x: 0, y: 0, z: 0}
--- !u!1 &1734572081990470162
GameObject:
  m_ObjectHideFlags: 0
  m_CorrespondingSourceObject: {fileID: 0}
  m_PrefabInstance: {fileID: 0}
  m_PrefabAsset: {fileID: 0}
  serializedVersion: 6
  m_Component:
  - component: {fileID: 1734572081990702642}
  m_Layer: 0
  m_Name: RigLArm2Gizmo
  m_TagString: Untagged
  m_Icon: {fileID: 0}
  m_NavMeshLayer: 0
  m_StaticEditorFlags: 0
  m_IsActive: 1
--- !u!4 &1734572081990702642
Transform:
  m_ObjectHideFlags: 0
  m_CorrespondingSourceObject: {fileID: 0}
  m_PrefabInstance: {fileID: 0}
  m_PrefabAsset: {fileID: 0}
  m_GameObject: {fileID: 1734572081990470162}
  m_LocalRotation: {x: 0.6381788, y: 0.5116015, z: 0.3034848, w: 0.48876253}
  m_LocalPosition: {x: -0.8433187, y: 1.142955, z: -0.08799459}
  m_LocalScale: {x: 0.9999997, y: 1, z: 1.0000004}
  m_Children: []
  m_Father: {fileID: 1734572081990702632}
  m_RootOrder: 6
  m_LocalEulerAnglesHint: {x: 0, y: 0, z: 0}
--- !u!1 &1734572081990470164
GameObject:
  m_ObjectHideFlags: 0
  m_CorrespondingSourceObject: {fileID: 0}
  m_PrefabInstance: {fileID: 0}
  m_PrefabAsset: {fileID: 0}
  serializedVersion: 6
  m_Component:
  - component: {fileID: 1734572081990702644}
  m_Layer: 0
  m_Name: RigLArmCollarbone
  m_TagString: Untagged
  m_Icon: {fileID: 0}
  m_NavMeshLayer: 0
  m_StaticEditorFlags: 0
  m_IsActive: 1
--- !u!4 &1734572081990702644
Transform:
  m_ObjectHideFlags: 0
  m_CorrespondingSourceObject: {fileID: 0}
  m_PrefabInstance: {fileID: 0}
  m_PrefabAsset: {fileID: 0}
  m_GameObject: {fileID: 1734572081990470164}
  m_LocalRotation: {x: 0.22054219, y: 0.780204, z: 0.13452484, w: 0.56968945}
  m_LocalPosition: {x: -0.07210739, y: 0.3802841, z: 0.1346824}
  m_LocalScale: {x: 1, y: 1.0000001, z: 1}
  m_Children:
  - {fileID: 1734572081990702652}
  m_Father: {fileID: 1734572081990702680}
  m_RootOrder: 0
  m_LocalEulerAnglesHint: {x: 0, y: 0, z: 0}
--- !u!1 &1734572081990470166
GameObject:
  m_ObjectHideFlags: 0
  m_CorrespondingSourceObject: {fileID: 0}
  m_PrefabInstance: {fileID: 0}
  m_PrefabAsset: {fileID: 0}
  serializedVersion: 6
  m_Component:
  - component: {fileID: 1734572081990702646}
  m_Layer: 0
  m_Name: RigLArmDigit11
  m_TagString: Untagged
  m_Icon: {fileID: 0}
  m_NavMeshLayer: 0
  m_StaticEditorFlags: 0
  m_IsActive: 1
--- !u!4 &1734572081990702646
Transform:
  m_ObjectHideFlags: 0
  m_CorrespondingSourceObject: {fileID: 0}
  m_PrefabInstance: {fileID: 0}
  m_PrefabAsset: {fileID: 0}
  m_GameObject: {fileID: 1734572081990470166}
  m_LocalRotation: {x: 0.2787947, y: 0.46423024, z: -0.021731341, w: 0.8404116}
  m_LocalPosition: {x: -0.059727933, y: -0.012855987, z: 0.18832086}
  m_LocalScale: {x: 0.99999726, y: 1, z: 1.000003}
  m_Children:
  - {fileID: 1734572081990702600}
  m_Father: {fileID: 1734572081990702622}
  m_RootOrder: 0
  m_LocalEulerAnglesHint: {x: 0, y: 0, z: 0}
--- !u!1 &1734572081990470168
GameObject:
  m_ObjectHideFlags: 0
  m_CorrespondingSourceObject: {fileID: 0}
  m_PrefabInstance: {fileID: 0}
  m_PrefabAsset: {fileID: 0}
  serializedVersion: 6
  m_Component:
  - component: {fileID: 1734572081990702648}
  m_Layer: 0
  m_Name: RigJaw
  m_TagString: Untagged
  m_Icon: {fileID: 0}
  m_NavMeshLayer: 0
  m_StaticEditorFlags: 0
  m_IsActive: 1
--- !u!4 &1734572081990702648
Transform:
  m_ObjectHideFlags: 0
  m_CorrespondingSourceObject: {fileID: 0}
  m_PrefabInstance: {fileID: 0}
  m_PrefabAsset: {fileID: 0}
  m_GameObject: {fileID: 1734572081990470168}
  m_LocalRotation: {x: 0.000000027755137, y: -0.0000001524409, z: -0.7933534, w: 0.6087614}
  m_LocalPosition: {x: -0.050574493, y: 0.116986, z: -0.000000022778021}
  m_LocalScale: {x: 1, y: 1, z: 1}
  m_Children: []
  m_Father: {fileID: 1734572081990702628}
  m_RootOrder: 1
  m_LocalEulerAnglesHint: {x: 0, y: 0, z: 0}
--- !u!1 &1734572081990470170
GameObject:
  m_ObjectHideFlags: 0
  m_CorrespondingSourceObject: {fileID: 0}
  m_PrefabInstance: {fileID: 0}
  m_PrefabAsset: {fileID: 0}
  serializedVersion: 6
  m_Component:
  - component: {fileID: 1734572081990702650}
  m_Layer: 0
  m_Name: RigJawGizmo
  m_TagString: Untagged
  m_Icon: {fileID: 0}
  m_NavMeshLayer: 0
  m_StaticEditorFlags: 0
  m_IsActive: 1
--- !u!4 &1734572081990702650
Transform:
  m_ObjectHideFlags: 0
  m_CorrespondingSourceObject: {fileID: 0}
  m_PrefabInstance: {fileID: 0}
  m_PrefabAsset: {fileID: 0}
  m_GameObject: {fileID: 1734572081990470170}
  m_LocalRotation: {x: -0.7010574, y: -0.09229584, z: 0.7010574, w: 0.09229598}
  m_LocalPosition: {x: -0.00000011857676, y: 1.8451643, z: 0.07331573}
  m_LocalScale: {x: 1, y: 1, z: 1}
  m_Children: []
  m_Father: {fileID: 1734572081990702632}
  m_RootOrder: 4
  m_LocalEulerAnglesHint: {x: 0, y: 0, z: 0}
--- !u!1 &1734572081990470172
GameObject:
  m_ObjectHideFlags: 0
  m_CorrespondingSourceObject: {fileID: 0}
  m_PrefabInstance: {fileID: 0}
  m_PrefabAsset: {fileID: 0}
  serializedVersion: 6
  m_Component:
  - component: {fileID: 1734572081990702652}
  m_Layer: 0
  m_Name: RigLArm1
  m_TagString: Untagged
  m_Icon: {fileID: 0}
  m_NavMeshLayer: 0
  m_StaticEditorFlags: 0
  m_IsActive: 1
--- !u!4 &1734572081990702652
Transform:
  m_ObjectHideFlags: 0
  m_CorrespondingSourceObject: {fileID: 0}
  m_PrefabInstance: {fileID: 0}
  m_PrefabAsset: {fileID: 0}
  m_GameObject: {fileID: 1734572081990470172}
  m_LocalRotation: {x: 0.034286696, y: 0.27262896, z: -0.24043807, w: 0.9309605}
  m_LocalPosition: {x: -0.45622477, y: -0.000000019073486, z: -0.00000015258789}
  m_LocalScale: {x: 0.9999999, y: 1.0000001, z: 1.0000001}
  m_Children:
  - {fileID: 1734572081990702640}
  m_Father: {fileID: 1734572081990702644}
  m_RootOrder: 0
  m_LocalEulerAnglesHint: {x: 0, y: 0, z: 0}
--- !u!1 &1734572081990470174
GameObject:
  m_ObjectHideFlags: 0
  m_CorrespondingSourceObject: {fileID: 0}
  m_PrefabInstance: {fileID: 0}
  m_PrefabAsset: {fileID: 0}
  serializedVersion: 6
  m_Component:
  - component: {fileID: 1734572081990702654}
  m_Layer: 0
  m_Name: RigLArm1Gizmo
  m_TagString: Untagged
  m_Icon: {fileID: 0}
  m_NavMeshLayer: 0
  m_StaticEditorFlags: 0
  m_IsActive: 1
--- !u!4 &1734572081990702654
Transform:
  m_ObjectHideFlags: 0
  m_CorrespondingSourceObject: {fileID: 0}
  m_PrefabInstance: {fileID: 0}
  m_PrefabAsset: {fileID: 0}
  m_GameObject: {fileID: 1734572081990470174}
  m_LocalRotation: {x: 0.65814924, y: 0.27354273, z: 0.32177663, w: 0.6232767}
  m_LocalPosition: {x: -0.51317155, y: 1.5336162, z: -0.045617655}
  m_LocalScale: {x: 1, y: 1, z: 1}
  m_Children: []
  m_Father: {fileID: 1734572081990702632}
  m_RootOrder: 5
  m_LocalEulerAnglesHint: {x: 0, y: 0, z: 0}
--- !u!1 &1734572081990470208
GameObject:
  m_ObjectHideFlags: 0
  m_CorrespondingSourceObject: {fileID: 0}
  m_PrefabInstance: {fileID: 0}
  m_PrefabAsset: {fileID: 0}
  serializedVersion: 6
  m_Component:
  - component: {fileID: 1734572081990702688}
  m_Layer: 0
  m_Name: RigPelvisGizmo
  m_TagString: Untagged
  m_Icon: {fileID: 0}
  m_NavMeshLayer: 0
  m_StaticEditorFlags: 0
  m_IsActive: 1
--- !u!4 &1734572081990702688
Transform:
  m_ObjectHideFlags: 0
  m_CorrespondingSourceObject: {fileID: 0}
  m_PrefabInstance: {fileID: 0}
  m_PrefabAsset: {fileID: 0}
  m_GameObject: {fileID: 1734572081990470208}
  m_LocalRotation: {x: 0.50000006, y: -0.50000006, z: -0.49999997, w: 0.49999997}
  m_LocalPosition: {x: 2.5426022e-14, y: 0.7270307, z: -0.000000070947756}
  m_LocalScale: {x: 1, y: 1, z: 1}
  m_Children: []
  m_Father: {fileID: 1734572081990702632}
  m_RootOrder: 10
  m_LocalEulerAnglesHint: {x: 0, y: 0, z: 0}
--- !u!1 &1734572081990470210
GameObject:
  m_ObjectHideFlags: 0
  m_CorrespondingSourceObject: {fileID: 0}
  m_PrefabInstance: {fileID: 0}
  m_PrefabAsset: {fileID: 0}
  serializedVersion: 6
  m_Component:
  - component: {fileID: 1734572081990702690}
  m_Layer: 0
  m_Name: RigRArm1
  m_TagString: Untagged
  m_Icon: {fileID: 0}
  m_NavMeshLayer: 0
  m_StaticEditorFlags: 0
  m_IsActive: 1
--- !u!4 &1734572081990702690
Transform:
  m_ObjectHideFlags: 0
  m_CorrespondingSourceObject: {fileID: 0}
  m_PrefabInstance: {fileID: 0}
  m_PrefabAsset: {fileID: 0}
  m_GameObject: {fileID: 1734572081990470210}
  m_LocalRotation: {x: -0.03428681, y: -0.27262947, z: -0.24043795, w: 0.93096036}
  m_LocalPosition: {x: -0.4562247, y: 0, z: -0.00000030517577}
  m_LocalScale: {x: 1.0000002, y: 1, z: 0.9999999}
  m_Children:
  - {fileID: 1734572081990702694}
  m_Father: {fileID: 1734572081990702714}
  m_RootOrder: 0
  m_LocalEulerAnglesHint: {x: 0, y: 0, z: 0}
--- !u!1 &1734572081990470212
GameObject:
  m_ObjectHideFlags: 0
  m_CorrespondingSourceObject: {fileID: 0}
  m_PrefabInstance: {fileID: 0}
  m_PrefabAsset: {fileID: 0}
  serializedVersion: 6
  m_Component:
  - component: {fileID: 1734572081990702692}
  m_Layer: 0
  m_Name: RigRArm1Gizmo
  m_TagString: Untagged
  m_Icon: {fileID: 0}
  m_NavMeshLayer: 0
  m_StaticEditorFlags: 0
  m_IsActive: 1
--- !u!4 &1734572081990702692
Transform:
  m_ObjectHideFlags: 0
  m_CorrespondingSourceObject: {fileID: 0}
  m_PrefabInstance: {fileID: 0}
  m_PrefabAsset: {fileID: 0}
  m_GameObject: {fileID: 1734572081990470212}
  m_LocalRotation: {x: 0.3217769, y: 0.62327653, z: 0.65814906, w: 0.27354306}
  m_LocalPosition: {x: 0.51317143, y: 1.533616, z: -0.045617465}
  m_LocalScale: {x: 1, y: 1, z: 1}
  m_Children: []
  m_Father: {fileID: 1734572081990702632}
  m_RootOrder: 11
  m_LocalEulerAnglesHint: {x: 0, y: 0, z: 0}
--- !u!1 &1734572081990470214
GameObject:
  m_ObjectHideFlags: 0
  m_CorrespondingSourceObject: {fileID: 0}
  m_PrefabInstance: {fileID: 0}
  m_PrefabAsset: {fileID: 0}
  serializedVersion: 6
  m_Component:
  - component: {fileID: 1734572081990702694}
  m_Layer: 0
  m_Name: RigRArm2
  m_TagString: Untagged
  m_Icon: {fileID: 0}
  m_NavMeshLayer: 0
  m_StaticEditorFlags: 0
  m_IsActive: 1
--- !u!4 &1734572081990702694
Transform:
  m_ObjectHideFlags: 0
  m_CorrespondingSourceObject: {fileID: 0}
  m_PrefabInstance: {fileID: 0}
  m_PrefabAsset: {fileID: 0}
  m_GameObject: {fileID: 1734572081990470214}
  m_LocalRotation: {x: -0.15769385, y: -0.17955689, z: -0.13026142, w: 0.96224946}
  m_LocalPosition: {x: -0.5132339, y: -0.0000000667572, z: -0.00000045776366}
  m_LocalScale: {x: 1.0000005, y: 1.0000001, z: 0.9999994}
  m_Children:
  - {fileID: 1734572081990702660}
  m_Father: {fileID: 1734572081990702690}
  m_RootOrder: 0
  m_LocalEulerAnglesHint: {x: 0, y: 0, z: 0}
--- !u!1 &1734572081990470216
GameObject:
  m_ObjectHideFlags: 0
  m_CorrespondingSourceObject: {fileID: 0}
  m_PrefabInstance: {fileID: 0}
  m_PrefabAsset: {fileID: 0}
  serializedVersion: 6
  m_Component:
  - component: {fileID: 1734572081990702696}
  m_Layer: 0
  m_Name: RigLLegPlatform
  m_TagString: Untagged
  m_Icon: {fileID: 0}
  m_NavMeshLayer: 0
  m_StaticEditorFlags: 0
  m_IsActive: 1
--- !u!4 &1734572081990702696
Transform:
  m_ObjectHideFlags: 0
  m_CorrespondingSourceObject: {fileID: 0}
  m_PrefabInstance: {fileID: 0}
  m_PrefabAsset: {fileID: 0}
  m_GameObject: {fileID: 1734572081990470216}
  m_LocalRotation: {x: 0.50000006, y: -0.50000006, z: -0.49999997, w: 0.49999997}
  m_LocalPosition: {x: -0.37663656, y: 9.711292e-10, z: -0.022216566}
  m_LocalScale: {x: 1, y: 1, z: 1}
  m_Children: []
  m_Father: {fileID: 1734572081990702632}
  m_RootOrder: 8
  m_LocalEulerAnglesHint: {x: 0, y: 0, z: 0}
--- !u!1 &1734572081990470218
GameObject:
  m_ObjectHideFlags: 0
  m_CorrespondingSourceObject: {fileID: 0}
  m_PrefabInstance: {fileID: 0}
  m_PrefabAsset: {fileID: 0}
  serializedVersion: 6
  m_Component:
  - component: {fileID: 1734572081990702698}
  m_Layer: 0
  m_Name: RigLLegToes1
  m_TagString: Untagged
  m_Icon: {fileID: 0}
  m_NavMeshLayer: 0
  m_StaticEditorFlags: 0
  m_IsActive: 1
--- !u!4 &1734572081990702698
Transform:
  m_ObjectHideFlags: 0
  m_CorrespondingSourceObject: {fileID: 0}
  m_PrefabInstance: {fileID: 0}
  m_PrefabAsset: {fileID: 0}
  m_GameObject: {fileID: 1734572081990470218}
  m_LocalRotation: {x: 0.000000054885852, y: -0.0000000062497056, z: -0.2701981, w: 0.96280473}
  m_LocalPosition: {x: -0.23863235, y: 0, z: 0}
  m_LocalScale: {x: 1, y: 1, z: 1}
  m_Children: []
  m_Father: {fileID: 1734572081990702614}
  m_RootOrder: 0
  m_LocalEulerAnglesHint: {x: 0, y: 0, z: 0}
--- !u!1 &1734572081990470220
GameObject:
  m_ObjectHideFlags: 0
  m_CorrespondingSourceObject: {fileID: 0}
  m_PrefabInstance: {fileID: 0}
  m_PrefabAsset: {fileID: 0}
  serializedVersion: 6
  m_Component:
  - component: {fileID: 1734572081990702700}
  m_Layer: 0
  m_Name: RigNeck
  m_TagString: Untagged
  m_Icon: {fileID: 0}
  m_NavMeshLayer: 0
  m_StaticEditorFlags: 0
  m_IsActive: 1
--- !u!4 &1734572081990702700
Transform:
  m_ObjectHideFlags: 0
  m_CorrespondingSourceObject: {fileID: 0}
  m_PrefabInstance: {fileID: 0}
  m_PrefabAsset: {fileID: 0}
  m_GameObject: {fileID: 1734572081990470220}
  m_LocalRotation: {x: 0.0000001591941, y: 0.00000036232922, z: -0.15589106, w: 0.98777425}
  m_LocalPosition: {x: -0.056413114, y: 0.080712356, z: -0.00000001571605}
  m_LocalScale: {x: 1.0000002, y: 0.9999995, z: 0.9999999}
  m_Children:
  - {fileID: 1734572081990702628}
  m_Father: {fileID: 1734572081990702680}
  m_RootOrder: 1
  m_LocalEulerAnglesHint: {x: 0, y: 0, z: 0}
--- !u!1 &1734572081990470222
GameObject:
  m_ObjectHideFlags: 0
  m_CorrespondingSourceObject: {fileID: 0}
  m_PrefabInstance: {fileID: 0}
  m_PrefabAsset: {fileID: 0}
  serializedVersion: 6
  m_Component:
  - component: {fileID: 1734572081990702702}
  m_Layer: 0
  m_Name: RigPelvis
  m_TagString: Untagged
  m_Icon: {fileID: 0}
  m_NavMeshLayer: 0
  m_StaticEditorFlags: 0
  m_IsActive: 1
--- !u!4 &1734572081990702702
Transform:
  m_ObjectHideFlags: 0
  m_CorrespondingSourceObject: {fileID: 0}
  m_PrefabInstance: {fileID: 0}
  m_PrefabAsset: {fileID: 0}
  m_GameObject: {fileID: 1734572081990470222}
  m_LocalRotation: {x: 0.50000006, y: -0.50000006, z: -0.49999997, w: 0.49999997}
  m_LocalPosition: {x: 2.5426022e-14, y: 0.7270307, z: -0.000000070947756}
  m_LocalScale: {x: 1, y: 1, z: 1}
  m_Children:
  - {fileID: 1734572081990702610}
  - {fileID: 1734572081990702684}
  - {fileID: 1734572081990702678}
  m_Father: {fileID: 1734572081990702632}
  m_RootOrder: 9
  m_LocalEulerAnglesHint: {x: 0, y: 0, z: 0}
--- !u!1 &1734572081990470224
GameObject:
  m_ObjectHideFlags: 0
  m_CorrespondingSourceObject: {fileID: 0}
  m_PrefabInstance: {fileID: 0}
  m_PrefabAsset: {fileID: 0}
  serializedVersion: 6
  m_Component:
  - component: {fileID: 1734572081990702704}
  m_Layer: 0
  m_Name: RigRArmDigit13
  m_TagString: Untagged
  m_Icon: {fileID: 0}
  m_NavMeshLayer: 0
  m_StaticEditorFlags: 0
  m_IsActive: 1
--- !u!4 &1734572081990702704
Transform:
  m_ObjectHideFlags: 0
  m_CorrespondingSourceObject: {fileID: 0}
  m_PrefabInstance: {fileID: 0}
  m_PrefabAsset: {fileID: 0}
  m_GameObject: {fileID: 1734572081990470224}
  m_LocalRotation: {x: 0.12800448, y: 0.043014474, z: 0.0501633, w: 0.9895698}
  m_LocalPosition: {x: -0.08143348, y: 0.00000030517577, z: 0.000000038146972}
  m_LocalScale: {x: 1.000002, y: 1.0000018, z: 0.999996}
  m_Children: []
  m_Father: {fileID: 1734572081990702718}
  m_RootOrder: 0
  m_LocalEulerAnglesHint: {x: 0, y: 0, z: 0}
--- !u!1 &1734572081990470226
GameObject:
  m_ObjectHideFlags: 0
  m_CorrespondingSourceObject: {fileID: 0}
  m_PrefabInstance: {fileID: 0}
  m_PrefabAsset: {fileID: 0}
  serializedVersion: 6
  m_Component:
  - component: {fileID: 1734572081990702706}
  m_Layer: 0
  m_Name: RigRArmDigit21
  m_TagString: Untagged
  m_Icon: {fileID: 0}
  m_NavMeshLayer: 0
  m_StaticEditorFlags: 0
  m_IsActive: 1
--- !u!4 &1734572081990702706
Transform:
  m_ObjectHideFlags: 0
  m_CorrespondingSourceObject: {fileID: 0}
  m_PrefabInstance: {fileID: 0}
  m_PrefabAsset: {fileID: 0}
  m_GameObject: {fileID: 1734572081990470226}
  m_LocalRotation: {x: -0.00083458534, y: -0.01992965, z: 0.03340841, w: 0.9992427}
  m_LocalPosition: {x: -0.22620368, y: 0.0000006866455, z: -0.13118379}
  m_LocalScale: {x: 0.9999983, y: 1.0000001, z: 1.0000015}
  m_Children:
  - {fileID: 1734572081990702708}
  m_Father: {fileID: 1734572081990702660}
  m_RootOrder: 1
  m_LocalEulerAnglesHint: {x: 0, y: 0, z: 0}
--- !u!1 &1734572081990470228
GameObject:
  m_ObjectHideFlags: 0
  m_CorrespondingSourceObject: {fileID: 0}
  m_PrefabInstance: {fileID: 0}
  m_PrefabAsset: {fileID: 0}
  serializedVersion: 6
  m_Component:
  - component: {fileID: 1734572081990702708}
  m_Layer: 0
  m_Name: RigRArmDigit22
  m_TagString: Untagged
  m_Icon: {fileID: 0}
  m_NavMeshLayer: 0
  m_StaticEditorFlags: 0
  m_IsActive: 1
--- !u!4 &1734572081990702708
Transform:
  m_ObjectHideFlags: 0
  m_CorrespondingSourceObject: {fileID: 0}
  m_PrefabInstance: {fileID: 0}
  m_PrefabAsset: {fileID: 0}
  m_GameObject: {fileID: 1734572081990470228}
  m_LocalRotation: {x: -0.0067516565, y: -0.032042183, z: 0.13128082, w: 0.99080426}
  m_LocalPosition: {x: -0.10239731, y: 0.00000015258789, z: -0.0000004005432}
  m_LocalScale: {x: 0.99999785, y: 1.000001, z: 1.0000011}
  m_Children:
  - {fileID: 1734572081990702710}
  m_Father: {fileID: 1734572081990702706}
  m_RootOrder: 0
  m_LocalEulerAnglesHint: {x: 0, y: 0, z: 0}
--- !u!1 &1734572081990470230
GameObject:
  m_ObjectHideFlags: 0
  m_CorrespondingSourceObject: {fileID: 0}
  m_PrefabInstance: {fileID: 0}
  m_PrefabAsset: {fileID: 0}
  serializedVersion: 6
  m_Component:
  - component: {fileID: 1734572081990702710}
  m_Layer: 0
  m_Name: RigRArmDigit23
  m_TagString: Untagged
  m_Icon: {fileID: 0}
  m_NavMeshLayer: 0
  m_StaticEditorFlags: 0
  m_IsActive: 1
--- !u!4 &1734572081990702710
Transform:
  m_ObjectHideFlags: 0
  m_CorrespondingSourceObject: {fileID: 0}
  m_PrefabInstance: {fileID: 0}
  m_PrefabAsset: {fileID: 0}
  m_GameObject: {fileID: 1734572081990470230}
  m_LocalRotation: {x: 0.017348358, y: 0.005902052, z: 0.008622552, w: 0.9997949}
  m_LocalPosition: {x: -0.0978286, y: 0.000000076293944, z: -0.000000333786}
  m_LocalScale: {x: 0.9999977, y: 1.0000008, z: 1.0000014}
  m_Children: []
  m_Father: {fileID: 1734572081990702708}
  m_RootOrder: 0
  m_LocalEulerAnglesHint: {x: 0, y: 0, z: 0}
--- !u!1 &1734572081990470232
GameObject:
  m_ObjectHideFlags: 0
  m_CorrespondingSourceObject: {fileID: 0}
  m_PrefabInstance: {fileID: 0}
  m_PrefabAsset: {fileID: 0}
  serializedVersion: 6
  m_Component:
  - component: {fileID: 1734572081990702712}
  m_Layer: 0
  m_Name: RigRArm2Gizmo
  m_TagString: Untagged
  m_Icon: {fileID: 0}
  m_NavMeshLayer: 0
  m_StaticEditorFlags: 0
  m_IsActive: 1
--- !u!4 &1734572081990702712
Transform:
  m_ObjectHideFlags: 0
  m_CorrespondingSourceObject: {fileID: 0}
  m_PrefabInstance: {fileID: 0}
  m_PrefabAsset: {fileID: 0}
  m_GameObject: {fileID: 1734572081990470232}
  m_LocalRotation: {x: 0.30347732, y: 0.4887572, z: 0.6381835, w: 0.5116051}
  m_LocalPosition: {x: 0.84331816, y: 1.1429546, z: -0.08799435}
  m_LocalScale: {x: 1.0000004, y: 1, z: 0.9999997}
  m_Children: []
  m_Father: {fileID: 1734572081990702632}
  m_RootOrder: 12
  m_LocalEulerAnglesHint: {x: 0, y: 0, z: 0}
--- !u!1 &1734572081990470234
GameObject:
  m_ObjectHideFlags: 0
  m_CorrespondingSourceObject: {fileID: 0}
  m_PrefabInstance: {fileID: 0}
  m_PrefabAsset: {fileID: 0}
  serializedVersion: 6
  m_Component:
  - component: {fileID: 1734572081990702714}
  m_Layer: 0
  m_Name: RigRArmCollarbone
  m_TagString: Untagged
  m_Icon: {fileID: 0}
  m_NavMeshLayer: 0
  m_StaticEditorFlags: 0
  m_IsActive: 1
--- !u!4 &1734572081990702714
Transform:
  m_ObjectHideFlags: 0
  m_CorrespondingSourceObject: {fileID: 0}
  m_PrefabInstance: {fileID: 0}
  m_PrefabAsset: {fileID: 0}
  m_GameObject: {fileID: 1734572081990470234}
  m_LocalRotation: {x: -0.22054179, y: -0.78020406, z: 0.13452531, w: 0.5696894}
  m_LocalPosition: {x: -0.07210739, y: 0.38028416, z: -0.1346824}
  m_LocalScale: {x: 1, y: 1, z: 1}
  m_Children:
  - {fileID: 1734572081990702690}
  m_Father: {fileID: 1734572081990702680}
  m_RootOrder: 2
  m_LocalEulerAnglesHint: {x: 0, y: 0, z: 0}
--- !u!1 &1734572081990470236
GameObject:
  m_ObjectHideFlags: 0
  m_CorrespondingSourceObject: {fileID: 0}
  m_PrefabInstance: {fileID: 0}
  m_PrefabAsset: {fileID: 0}
  serializedVersion: 6
  m_Component:
  - component: {fileID: 1734572081990702716}
  m_Layer: 0
  m_Name: RigRArmDigit11
  m_TagString: Untagged
  m_Icon: {fileID: 0}
  m_NavMeshLayer: 0
  m_StaticEditorFlags: 0
  m_IsActive: 1
--- !u!4 &1734572081990702716
Transform:
  m_ObjectHideFlags: 0
  m_CorrespondingSourceObject: {fileID: 0}
  m_PrefabInstance: {fileID: 0}
  m_PrefabAsset: {fileID: 0}
  m_GameObject: {fileID: 1734572081990470236}
  m_LocalRotation: {x: -0.27880067, y: -0.46422973, z: -0.021738788, w: 0.8404097}
  m_LocalPosition: {x: -0.05972908, y: -0.0128548425, z: -0.18832195}
  m_LocalScale: {x: 1.0000029, y: 0.99999994, z: 0.999997}
  m_Children:
  - {fileID: 1734572081990702718}
  m_Father: {fileID: 1734572081990702660}
  m_RootOrder: 0
  m_LocalEulerAnglesHint: {x: 0, y: 0, z: 0}
--- !u!1 &1734572081990470238
GameObject:
  m_ObjectHideFlags: 0
  m_CorrespondingSourceObject: {fileID: 0}
  m_PrefabInstance: {fileID: 0}
  m_PrefabAsset: {fileID: 0}
  serializedVersion: 6
  m_Component:
  - component: {fileID: 1734572081990702718}
  m_Layer: 0
  m_Name: RigRArmDigit12
  m_TagString: Untagged
  m_Icon: {fileID: 0}
  m_NavMeshLayer: 0
  m_StaticEditorFlags: 0
  m_IsActive: 1
--- !u!4 &1734572081990702718
Transform:
  m_ObjectHideFlags: 0
  m_CorrespondingSourceObject: {fileID: 0}
  m_PrefabInstance: {fileID: 0}
  m_PrefabAsset: {fileID: 0}
  m_GameObject: {fileID: 1734572081990470238}
  m_LocalRotation: {x: 0.010352726, y: 0.044565585, z: 0.017460348, w: 0.9988002}
  m_LocalPosition: {x: -0.071231686, y: 0.00000030517577, z: 0.000000076293944}
  m_LocalScale: {x: 1.0000027, y: 1.0000004, z: 0.99999666}
  m_Children:
  - {fileID: 1734572081990702704}
  m_Father: {fileID: 1734572081990702716}
  m_RootOrder: 0
  m_LocalEulerAnglesHint: {x: 0, y: 0, z: 0}
--- !u!1 &1734572081990470240
GameObject:
  m_ObjectHideFlags: 0
  m_CorrespondingSourceObject: {fileID: 0}
  m_PrefabInstance: {fileID: 0}
  m_PrefabAsset: {fileID: 0}
  serializedVersion: 6
  m_Component:
  - component: {fileID: 1734572081990702592}
  m_Layer: 0
  m_Name: RigLArmDigit23
  m_TagString: Untagged
  m_Icon: {fileID: 0}
  m_NavMeshLayer: 0
  m_StaticEditorFlags: 0
  m_IsActive: 1
--- !u!4 &1734572081990702592
Transform:
  m_ObjectHideFlags: 0
  m_CorrespondingSourceObject: {fileID: 0}
  m_PrefabInstance: {fileID: 0}
  m_PrefabAsset: {fileID: 0}
  m_GameObject: {fileID: 1734572081990470240}
  m_LocalRotation: {x: -0.017351821, y: -0.005905315, z: 0.008623748, w: 0.99979484}
  m_LocalPosition: {x: -0.09782898, y: -0.000000076293944, z: -0.0000003147125}
  m_LocalScale: {x: 1.0000023, y: 0.9999991, z: 0.999999}
  m_Children: []
  m_Father: {fileID: 1734572081990702606}
  m_RootOrder: 0
  m_LocalEulerAnglesHint: {x: 0, y: 0, z: 0}
--- !u!1 &1734572081990470242
GameObject:
  m_ObjectHideFlags: 0
  m_CorrespondingSourceObject: {fileID: 0}
  m_PrefabInstance: {fileID: 0}
  m_PrefabAsset: {fileID: 0}
  serializedVersion: 6
  m_Component:
  - component: {fileID: 1734572081990702594}
  m_Layer: 0
  m_Name: RigLArmDigit31
  m_TagString: Untagged
  m_Icon: {fileID: 0}
  m_NavMeshLayer: 0
  m_StaticEditorFlags: 0
  m_IsActive: 1
--- !u!4 &1734572081990702594
Transform:
  m_ObjectHideFlags: 0
  m_CorrespondingSourceObject: {fileID: 0}
  m_PrefabInstance: {fileID: 0}
  m_PrefabAsset: {fileID: 0}
  m_GameObject: {fileID: 1734572081990470242}
  m_LocalRotation: {x: -0.0004400355, y: -0.0121555915, z: 0.027256664, w: 0.9995545}
  m_LocalPosition: {x: -0.22620407, y: -0.0000005340576, z: -0.013452206}
  m_LocalScale: {x: 1.0000023, y: 0.99999994, z: 0.99999815}
  m_Children:
  - {fileID: 1734572081990702596}
  m_Father: {fileID: 1734572081990702622}
  m_RootOrder: 2
  m_LocalEulerAnglesHint: {x: 0, y: 0, z: 0}
--- !u!1 &1734572081990470244
GameObject:
  m_ObjectHideFlags: 0
  m_CorrespondingSourceObject: {fileID: 0}
  m_PrefabInstance: {fileID: 0}
  m_PrefabAsset: {fileID: 0}
  serializedVersion: 6
  m_Component:
  - component: {fileID: 1734572081990702596}
  m_Layer: 0
  m_Name: RigLArmDigit32
  m_TagString: Untagged
  m_Icon: {fileID: 0}
  m_NavMeshLayer: 0
  m_StaticEditorFlags: 0
  m_IsActive: 1
--- !u!4 &1734572081990702596
Transform:
  m_ObjectHideFlags: 0
  m_CorrespondingSourceObject: {fileID: 0}
  m_PrefabInstance: {fileID: 0}
  m_PrefabAsset: {fileID: 0}
  m_GameObject: {fileID: 1734572081990470244}
  m_LocalRotation: {x: 0.0021638833, y: 0.0119644115, z: 0.11538396, w: 0.99324656}
  m_LocalPosition: {x: -0.118496396, y: -0.00000022888183, z: -0.00000043869017}
  m_LocalScale: {x: 1.0000027, y: 0.9999992, z: 0.9999984}
  m_Children:
  - {fileID: 1734572081990702598}
  m_Father: {fileID: 1734572081990702594}
  m_RootOrder: 0
  m_LocalEulerAnglesHint: {x: 0, y: 0, z: 0}
--- !u!1 &1734572081990470246
GameObject:
  m_ObjectHideFlags: 0
  m_CorrespondingSourceObject: {fileID: 0}
  m_PrefabInstance: {fileID: 0}
  m_PrefabAsset: {fileID: 0}
  serializedVersion: 6
  m_Component:
  - component: {fileID: 1734572081990702598}
  m_Layer: 0
  m_Name: RigLArmDigit33
  m_TagString: Untagged
  m_Icon: {fileID: 0}
  m_NavMeshLayer: 0
  m_StaticEditorFlags: 0
  m_IsActive: 1
--- !u!4 &1734572081990702598
Transform:
  m_ObjectHideFlags: 0
  m_CorrespondingSourceObject: {fileID: 0}
  m_PrefabInstance: {fileID: 0}
  m_PrefabAsset: {fileID: 0}
  m_GameObject: {fileID: 1734572081990470246}
  m_LocalRotation: {x: -0.00000218883, y: -0.00000022031266, z: 0.03161727, w: 0.9995001}
  m_LocalPosition: {x: -0.11131645, y: -0.00000015258789, z: -0.00000034332274}
  m_LocalScale: {x: 1.0000029, y: 0.9999991, z: 0.99999833}
  m_Children: []
  m_Father: {fileID: 1734572081990702596}
  m_RootOrder: 0
  m_LocalEulerAnglesHint: {x: 0, y: 0, z: 0}
--- !u!1 &1734572081990470248
GameObject:
  m_ObjectHideFlags: 0
  m_CorrespondingSourceObject: {fileID: 0}
  m_PrefabInstance: {fileID: 0}
  m_PrefabAsset: {fileID: 0}
  serializedVersion: 6
  m_Component:
  - component: {fileID: 1734572081990702600}
  m_Layer: 0
  m_Name: RigLArmDigit12
  m_TagString: Untagged
  m_Icon: {fileID: 0}
  m_NavMeshLayer: 0
  m_StaticEditorFlags: 0
  m_IsActive: 1
--- !u!4 &1734572081990702600
Transform:
  m_ObjectHideFlags: 0
  m_CorrespondingSourceObject: {fileID: 0}
  m_PrefabInstance: {fileID: 0}
  m_PrefabAsset: {fileID: 0}
  m_GameObject: {fileID: 1734572081990470248}
  m_LocalRotation: {x: -0.0103501305, y: -0.044564687, z: 0.017464174, w: 0.9988002}
  m_LocalPosition: {x: -0.07123134, y: -0.00000030517577, z: 0.000000076293944}
  m_LocalScale: {x: 0.9999973, y: 0.9999996, z: 1.0000032}
  m_Children:
  - {fileID: 1734572081990702602}
  m_Father: {fileID: 1734572081990702646}
  m_RootOrder: 0
  m_LocalEulerAnglesHint: {x: 0, y: 0, z: 0}
--- !u!1 &1734572081990470250
GameObject:
  m_ObjectHideFlags: 0
  m_CorrespondingSourceObject: {fileID: 0}
  m_PrefabInstance: {fileID: 0}
  m_PrefabAsset: {fileID: 0}
  serializedVersion: 6
  m_Component:
  - component: {fileID: 1734572081990702602}
  m_Layer: 0
  m_Name: RigLArmDigit13
  m_TagString: Untagged
  m_Icon: {fileID: 0}
  m_NavMeshLayer: 0
  m_StaticEditorFlags: 0
  m_IsActive: 1
--- !u!4 &1734572081990702602
Transform:
  m_ObjectHideFlags: 0
  m_CorrespondingSourceObject: {fileID: 0}
  m_PrefabInstance: {fileID: 0}
  m_PrefabAsset: {fileID: 0}
  m_GameObject: {fileID: 1734572081990470250}
  m_LocalRotation: {x: -0.12800358, y: -0.0430148, z: 0.050167337, w: 0.98956966}
  m_LocalPosition: {x: -0.08143299, y: -0.00000022888183, z: 0.000000038146972}
  m_LocalScale: {x: 0.99999803, y: 0.9999981, z: 1.0000039}
  m_Children: []
  m_Father: {fileID: 1734572081990702600}
  m_RootOrder: 0
  m_LocalEulerAnglesHint: {x: 0, y: 0, z: 0}
--- !u!1 &1734572081990470252
GameObject:
  m_ObjectHideFlags: 0
  m_CorrespondingSourceObject: {fileID: 0}
  m_PrefabInstance: {fileID: 0}
  m_PrefabAsset: {fileID: 0}
  serializedVersion: 6
  m_Component:
  - component: {fileID: 1734572081990702604}
  m_Layer: 0
  m_Name: RigLArmDigit21
  m_TagString: Untagged
  m_Icon: {fileID: 0}
  m_NavMeshLayer: 0
  m_StaticEditorFlags: 0
  m_IsActive: 1
--- !u!4 &1734572081990702604
Transform:
  m_ObjectHideFlags: 0
  m_CorrespondingSourceObject: {fileID: 0}
  m_PrefabInstance: {fileID: 0}
  m_PrefabAsset: {fileID: 0}
  m_GameObject: {fileID: 1734572081990470252}
  m_LocalRotation: {x: 0.00083201553, y: 0.019925632, z: 0.033410277, w: 0.9992427}
  m_LocalPosition: {x: -0.22620353, y: -0.0000008392334, z: 0.13118152}
  m_LocalScale: {x: 1.0000018, y: 0.9999998, z: 0.9999987}
  m_Children:
  - {fileID: 1734572081990702606}
  m_Father: {fileID: 1734572081990702622}
  m_RootOrder: 1
  m_LocalEulerAnglesHint: {x: 0, y: 0, z: 0}
--- !u!1 &1734572081990470254
GameObject:
  m_ObjectHideFlags: 0
  m_CorrespondingSourceObject: {fileID: 0}
  m_PrefabInstance: {fileID: 0}
  m_PrefabAsset: {fileID: 0}
  serializedVersion: 6
  m_Component:
  - component: {fileID: 1734572081990702606}
  m_Layer: 0
  m_Name: RigLArmDigit22
  m_TagString: Untagged
  m_Icon: {fileID: 0}
  m_NavMeshLayer: 0
  m_StaticEditorFlags: 0
  m_IsActive: 1
--- !u!4 &1734572081990702606
Transform:
  m_ObjectHideFlags: 0
  m_CorrespondingSourceObject: {fileID: 0}
  m_PrefabInstance: {fileID: 0}
  m_PrefabAsset: {fileID: 0}
  m_GameObject: {fileID: 1734572081990470254}
  m_LocalRotation: {x: 0.0067485506, y: 0.032038428, z: 0.13128228, w: 0.9908042}
  m_LocalPosition: {x: -0.10239769, y: -0.00000022888183, z: -0.0000004005432}
  m_LocalScale: {x: 1.0000021, y: 0.9999989, z: 0.9999993}
  m_Children:
  - {fileID: 1734572081990702592}
  m_Father: {fileID: 1734572081990702604}
  m_RootOrder: 0
  m_LocalEulerAnglesHint: {x: 0, y: 0, z: 0}
--- !u!1 &1734572081990470256
GameObject:
  m_ObjectHideFlags: 0
  m_CorrespondingSourceObject: {fileID: 0}
  m_PrefabInstance: {fileID: 0}
  m_PrefabAsset: {fileID: 0}
  serializedVersion: 6
  m_Component:
  - component: {fileID: 1734572081990702608}
  m_Layer: 0
  m_Name: RigLArmPalmGizmo
  m_TagString: Untagged
  m_Icon: {fileID: 0}
  m_NavMeshLayer: 0
  m_StaticEditorFlags: 0
  m_IsActive: 1
--- !u!4 &1734572081990702608
Transform:
  m_ObjectHideFlags: 0
  m_CorrespondingSourceObject: {fileID: 0}
  m_PrefabInstance: {fileID: 0}
  m_PrefabAsset: {fileID: 0}
  m_GameObject: {fileID: 1734572081990470256}
  m_LocalRotation: {x: 0.00005894094, y: 0.000059607515, z: 0.7154012, w: 0.69871396}
  m_LocalPosition: {x: -0.9128095, y: 0.91720396, z: -0.06119208}
  m_LocalScale: {x: 1.000001, y: 1.0000001, z: 0.99999917}
  m_Children: []
  m_Father: {fileID: 1734572081990702632}
  m_RootOrder: 7
  m_LocalEulerAnglesHint: {x: 0, y: 0, z: 0}
--- !u!1 &1734572081990470258
GameObject:
  m_ObjectHideFlags: 0
  m_CorrespondingSourceObject: {fileID: 0}
  m_PrefabInstance: {fileID: 0}
  m_PrefabAsset: {fileID: 0}
  serializedVersion: 6
  m_Component:
  - component: {fileID: 1734572081990702610}
  m_Layer: 0
  m_Name: RigLLeg1
  m_TagString: Untagged
  m_Icon: {fileID: 0}
  m_NavMeshLayer: 0
  m_StaticEditorFlags: 0
  m_IsActive: 1
--- !u!4 &1734572081990702610
Transform:
  m_ObjectHideFlags: 0
  m_CorrespondingSourceObject: {fileID: 0}
  m_PrefabInstance: {fileID: 0}
  m_PrefabAsset: {fileID: 0}
  m_GameObject: {fileID: 1734572081990470258}
  m_LocalRotation: {x: -0.05847291, y: 0.98938286, z: 0.018617628, w: 0.13174178}
  m_LocalPosition: {x: 0.09855209, y: 0.000000014719385, z: 0.23922352}
  m_LocalScale: {x: 1, y: 1, z: 1}
  m_Children:
  - {fileID: 1734572081990702612}
  m_Father: {fileID: 1734572081990702702}
  m_RootOrder: 0
  m_LocalEulerAnglesHint: {x: 0, y: 0, z: 0}
--- !u!1 &1734572081990470260
GameObject:
  m_ObjectHideFlags: 0
  m_CorrespondingSourceObject: {fileID: 0}
  m_PrefabInstance: {fileID: 0}
  m_PrefabAsset: {fileID: 0}
  serializedVersion: 6
  m_Component:
  - component: {fileID: 1734572081990702612}
  m_Layer: 0
  m_Name: RigLLeg2
  m_TagString: Untagged
  m_Icon: {fileID: 0}
  m_NavMeshLayer: 0
  m_StaticEditorFlags: 0
  m_IsActive: 1
--- !u!4 &1734572081990702612
Transform:
  m_ObjectHideFlags: 0
  m_CorrespondingSourceObject: {fileID: 0}
  m_PrefabInstance: {fileID: 0}
  m_PrefabAsset: {fileID: 0}
  m_GameObject: {fileID: 1734572081990470260}
  m_LocalRotation: {x: 0.0082757715, y: -0.0035978872, z: 0.11559464, w: 0.9932555}
  m_LocalPosition: {x: -0.23837227, y: -0.000000009536743, z: -0.00000015258789}
  m_LocalScale: {x: 0.99999887, y: 1.0000008, z: 1.0000001}
  m_Children:
  - {fileID: 1734572081990702614}
  m_Father: {fileID: 1734572081990702610}
  m_RootOrder: 0
  m_LocalEulerAnglesHint: {x: 0, y: 0, z: 0}
--- !u!1 &1734572081990470262
GameObject:
  m_ObjectHideFlags: 0
  m_CorrespondingSourceObject: {fileID: 0}
  m_PrefabInstance: {fileID: 0}
  m_PrefabAsset: {fileID: 0}
  serializedVersion: 6
  m_Component:
  - component: {fileID: 1734572081990702614}
  m_Layer: 0
  m_Name: RigLLegAnkle
  m_TagString: Untagged
  m_Icon: {fileID: 0}
  m_NavMeshLayer: 0
  m_StaticEditorFlags: 0
  m_IsActive: 1
--- !u!4 &1734572081990702614
Transform:
  m_ObjectHideFlags: 0
  m_CorrespondingSourceObject: {fileID: 0}
  m_PrefabInstance: {fileID: 0}
  m_PrefabAsset: {fileID: 0}
  m_GameObject: {fileID: 1734572081990470262}
  m_LocalRotation: {x: -0.042567007, y: 0.12834418, z: -0.5345208, w: 0.83426815}
  m_LocalPosition: {x: -0.2878958, y: 0.0000000035762786, z: 0.000000038146972}
  m_LocalScale: {x: 0.99999404, y: 0.999998, z: 1.000008}
  m_Children:
  - {fileID: 1734572081990702698}
  m_Father: {fileID: 1734572081990702612}
  m_RootOrder: 0
  m_LocalEulerAnglesHint: {x: 0, y: 0, z: 0}
--- !u!1 &1734572081990470264
GameObject:
  m_ObjectHideFlags: 0
  m_CorrespondingSourceObject: {fileID: 0}
  m_PrefabInstance: {fileID: 0}
  m_PrefabAsset: {fileID: 0}
  serializedVersion: 6
  m_Component:
  - component: {fileID: 1734572081990702616}
  m_Layer: 0
  m_Name: RigLArmDigit41
  m_TagString: Untagged
  m_Icon: {fileID: 0}
  m_NavMeshLayer: 0
  m_StaticEditorFlags: 0
  m_IsActive: 1
--- !u!4 &1734572081990702616
Transform:
  m_ObjectHideFlags: 0
  m_CorrespondingSourceObject: {fileID: 0}
  m_PrefabInstance: {fileID: 0}
  m_PrefabAsset: {fileID: 0}
  m_GameObject: {fileID: 1734572081990470264}
  m_LocalRotation: {x: -0.0019345897, y: -0.04543751, z: 0.034204643, w: 0.9983796}
  m_LocalPosition: {x: -0.2262046, y: -0.000000076293944, z: -0.16442588}
  m_LocalScale: {x: 1.0000027, y: 1, z: 0.9999977}
  m_Children:
  - {fileID: 1734572081990702618}
  m_Father: {fileID: 1734572081990702622}
  m_RootOrder: 3
  m_LocalEulerAnglesHint: {x: 0, y: 0, z: 0}
--- !u!1 &1734572081990470266
GameObject:
  m_ObjectHideFlags: 0
  m_CorrespondingSourceObject: {fileID: 0}
  m_PrefabInstance: {fileID: 0}
  m_PrefabAsset: {fileID: 0}
  serializedVersion: 6
  m_Component:
  - component: {fileID: 1734572081990702618}
  m_Layer: 0
  m_Name: RigLArmDigit42
  m_TagString: Untagged
  m_Icon: {fileID: 0}
  m_NavMeshLayer: 0
  m_StaticEditorFlags: 0
  m_IsActive: 1
--- !u!4 &1734572081990702618
Transform:
  m_ObjectHideFlags: 0
  m_CorrespondingSourceObject: {fileID: 0}
  m_PrefabInstance: {fileID: 0}
  m_PrefabAsset: {fileID: 0}
  m_GameObject: {fileID: 1734572081990470266}
  m_LocalRotation: {x: 0.0029606537, y: 0.016851185, z: 0.10367455, w: 0.9944641}
  m_LocalPosition: {x: -0.10062599, y: -0.000000076293944, z: -0.00000036239624}
  m_LocalScale: {x: 1.0000031, y: 0.9999995, z: 0.999998}
  m_Children:
  - {fileID: 1734572081990702620}
  m_Father: {fileID: 1734572081990702616}
  m_RootOrder: 0
  m_LocalEulerAnglesHint: {x: 0, y: 0, z: 0}
--- !u!1 &1734572081990470268
GameObject:
  m_ObjectHideFlags: 0
  m_CorrespondingSourceObject: {fileID: 0}
  m_PrefabInstance: {fileID: 0}
  m_PrefabAsset: {fileID: 0}
  serializedVersion: 6
  m_Component:
  - component: {fileID: 1734572081990702620}
  m_Layer: 0
  m_Name: RigLArmDigit43
  m_TagString: Untagged
  m_Icon: {fileID: 0}
  m_NavMeshLayer: 0
  m_StaticEditorFlags: 0
  m_IsActive: 1
--- !u!4 &1734572081990702620
Transform:
  m_ObjectHideFlags: 0
  m_CorrespondingSourceObject: {fileID: 0}
  m_PrefabInstance: {fileID: 0}
  m_PrefabAsset: {fileID: 0}
  m_GameObject: {fileID: 1734572081990470268}
  m_LocalRotation: {x: 0.00905734, y: 0.026890902, z: 0.03639385, w: 0.9989346}
  m_LocalPosition: {x: -0.114770584, y: -0.000000076293944, z: -0.00000030517577}
  m_LocalScale: {x: 1.0000029, y: 0.9999993, z: 0.9999984}
  m_Children: []
  m_Father: {fileID: 1734572081990702618}
  m_RootOrder: 0
  m_LocalEulerAnglesHint: {x: 0, y: 0, z: 0}
--- !u!1 &1734572081990470270
GameObject:
  m_ObjectHideFlags: 0
  m_CorrespondingSourceObject: {fileID: 0}
  m_PrefabInstance: {fileID: 0}
  m_PrefabAsset: {fileID: 0}
  serializedVersion: 6
  m_Component:
  - component: {fileID: 1734572081990702622}
  m_Layer: 0
  m_Name: RigLArmPalm
  m_TagString: Untagged
  m_Icon: {fileID: 0}
  m_NavMeshLayer: 0
  m_StaticEditorFlags: 0
  m_IsActive: 1
--- !u!4 &1734572081990702622
Transform:
  m_ObjectHideFlags: 0
  m_CorrespondingSourceObject: {fileID: 0}
  m_PrefabInstance: {fileID: 0}
  m_PrefabAsset: {fileID: 0}
  m_GameObject: {fileID: 1734572081990470270}
  m_LocalRotation: {x: -0.81190765, y: 0.09909068, z: 0.13761447, w: 0.5586137}
  m_LocalPosition: {x: -0.23772006, y: -0.00000087738033, z: 0.0000009155273}
  m_LocalScale: {x: 1.0000018, y: 1.0000001, z: 0.99999833}
  m_Children:
  - {fileID: 1734572081990702646}
  - {fileID: 1734572081990702604}
  - {fileID: 1734572081990702594}
  - {fileID: 1734572081990702616}
  m_Father: {fileID: 1734572081990702640}
  m_RootOrder: 0
  m_LocalEulerAnglesHint: {x: 0, y: 0, z: 0}
--- !u!1 &1734572081990470536
GameObject:
  m_ObjectHideFlags: 0
  m_CorrespondingSourceObject: {fileID: 0}
  m_PrefabInstance: {fileID: 0}
  m_PrefabAsset: {fileID: 0}
  serializedVersion: 6
  m_Component:
  - component: {fileID: 1734572081990703016}
  m_Layer: 0
  m_Name: RigSpine2
  m_TagString: Untagged
  m_Icon: {fileID: 0}
  m_NavMeshLayer: 0
  m_StaticEditorFlags: 0
  m_IsActive: 1
--- !u!4 &1734572081990703016
Transform:
  m_ObjectHideFlags: 0
  m_CorrespondingSourceObject: {fileID: 0}
  m_PrefabInstance: {fileID: 0}
  m_PrefabAsset: {fileID: 0}
  m_GameObject: {fileID: 1734572081990470536}
  m_LocalRotation: {x: -2.5819067e-11, y: 0.000000024709133, z: 0.17772645, w: 0.98407996}
  m_LocalPosition: {x: -0.30478293, y: 0.000000009536743, z: 0}
  m_LocalScale: {x: 0.9999995, y: 0.9999995, z: 1}
  m_Children:
  - {fileID: 1734572081990703018}
  m_Father: {fileID: 1734572081990702678}
  m_RootOrder: 0
  m_LocalEulerAnglesHint: {x: 0, y: 0, z: 0}
--- !u!1 &1734572081990470538
GameObject:
  m_ObjectHideFlags: 0
  m_CorrespondingSourceObject: {fileID: 0}
  m_PrefabInstance: {fileID: 0}
  m_PrefabAsset: {fileID: 0}
  serializedVersion: 6
  m_Component:
  - component: {fileID: 1734572081990703018}
  m_Layer: 0
  m_Name: RigSpine3
  m_TagString: Untagged
  m_Icon: {fileID: 0}
  m_NavMeshLayer: 0
  m_StaticEditorFlags: 0
  m_IsActive: 1
--- !u!4 &1734572081990703018
Transform:
  m_ObjectHideFlags: 0
  m_CorrespondingSourceObject: {fileID: 0}
  m_PrefabInstance: {fileID: 0}
  m_PrefabAsset: {fileID: 0}
  m_GameObject: {fileID: 1734572081990470538}
  m_LocalRotation: {x: -0.0000000011784312, y: -0.000000056114242, z: -0.1818504, w: 0.98332626}
  m_LocalPosition: {x: -0.22392929, y: -0.000000038146972, z: -4.5474734e-15}
  m_LocalScale: {x: 1, y: 1, z: 1}
  m_Children:
  - {fileID: 1734572081990702680}
  m_Father: {fileID: 1734572081990703016}
  m_RootOrder: 0
  m_LocalEulerAnglesHint: {x: 0, y: 0, z: 0}
--- !u!1 &1734572081990470540
GameObject:
  m_ObjectHideFlags: 0
  m_CorrespondingSourceObject: {fileID: 0}
  m_PrefabInstance: {fileID: 0}
  m_PrefabAsset: {fileID: 0}
  serializedVersion: 6
  m_Component:
  - component: {fileID: 1734572081990703020}
  - component: {fileID: 1734572081993647880}
  m_Layer: 0
  m_Name: Shadow
  m_TagString: Untagged
  m_Icon: {fileID: 0}
  m_NavMeshLayer: 0
  m_StaticEditorFlags: 0
  m_IsActive: 1
--- !u!4 &1734572081990703020
Transform:
  m_ObjectHideFlags: 0
  m_CorrespondingSourceObject: {fileID: 0}
  m_PrefabInstance: {fileID: 0}
  m_PrefabAsset: {fileID: 0}
  m_GameObject: {fileID: 1734572081990470540}
  m_LocalRotation: {x: -0.7071068, y: 0, z: -0, w: 0.7071068}
  m_LocalPosition: {x: -0, y: 0, z: 0}
  m_LocalScale: {x: 1, y: 1, z: 1}
  m_Children: []
  m_Father: {fileID: 1734572081990702632}
  m_RootOrder: 16
  m_LocalEulerAnglesHint: {x: 0, y: 0, z: 0}
--- !u!137 &1734572081993647880
SkinnedMeshRenderer:
  m_ObjectHideFlags: 0
  m_CorrespondingSourceObject: {fileID: 0}
  m_PrefabInstance: {fileID: 0}
  m_PrefabAsset: {fileID: 0}
  m_GameObject: {fileID: 1734572081990470540}
  m_Enabled: 1
  m_CastShadows: 1
  m_ReceiveShadows: 1
  m_DynamicOccludee: 1
  m_MotionVectors: 1
  m_LightProbeUsage: 1
  m_ReflectionProbeUsage: 1
  m_RayTracingMode: 3
  m_RayTraceProcedural: 0
  m_RenderingLayerMask: 1
  m_RendererPriority: 0
  m_Materials:
  - {fileID: 2100000, guid: 6878d84d66e2c2f4ca57e3366484d2e2, type: 2}
  m_StaticBatchInfo:
    firstSubMesh: 0
    subMeshCount: 0
  m_StaticBatchRoot: {fileID: 0}
  m_ProbeAnchor: {fileID: 0}
  m_LightProbeVolumeOverride: {fileID: 0}
  m_ScaleInLightmap: 1
  m_ReceiveGI: 1
  m_PreserveUVs: 0
  m_IgnoreNormalsForChartDetection: 0
  m_ImportantGI: 0
  m_StitchLightmapSeams: 0
  m_SelectedEditorRenderState: 3
  m_MinimumChartSize: 4
  m_AutoUVMaxDistance: 0.5
  m_AutoUVMaxAngle: 89
  m_LightmapParameters: {fileID: 0}
  m_SortingLayerID: 0
  m_SortingLayer: 0
  m_SortingOrder: 0
  serializedVersion: 2
  m_Quality: 0
  m_UpdateWhenOffscreen: 0
  m_SkinnedMotionVectors: 1
  m_Mesh: {fileID: 4300000, guid: 5108a7df5817a5a42a6b0c8a811fb5dd, type: 3}
  m_Bones:
  - {fileID: 1734572081990702680}
  - {fileID: 1734572081990702690}
  - {fileID: 1734572081990702714}
  - {fileID: 1734572081990703016}
  - {fileID: 1734572081990702702}
  - {fileID: 1734572081990702678}
  - {fileID: 1734572081990702684}
  - {fileID: 1734572081990702628}
  - {fileID: 1734572081990702648}
  - {fileID: 1734572081990702672}
  - {fileID: 1734572081990702686}
  - {fileID: 1734572081990702636}
  - {fileID: 1734572081990702624}
  - {fileID: 1734572081990702694}
  - {fileID: 1734572081990702716}
  - {fileID: 1734572081990702660}
  - {fileID: 1734572081990702610}
  - {fileID: 1734572081990702706}
  - {fileID: 1734572081990702664}
  - {fileID: 1734572081990702670}
  - {fileID: 1734572081990702668}
  - {fileID: 1734572081990702710}
  - {fileID: 1734572081990702658}
  - {fileID: 1734572081990702666}
  - {fileID: 1734572081990702656}
  - {fileID: 1734572081990702708}
  - {fileID: 1734572081990702704}
  - {fileID: 1734572081990702718}
  - {fileID: 1734572081990702676}
  - {fileID: 1734572081990702652}
  - {fileID: 1734572081990702640}
  - {fileID: 1734572081990703018}
  - {fileID: 1734572081990702612}
  - {fileID: 1734572081990702622}
  - {fileID: 1734572081990702646}
  - {fileID: 1734572081990702614}
  - {fileID: 1734572081990702604}
  - {fileID: 1734572081990702606}
  - {fileID: 1734572081990702594}
  - {fileID: 1734572081990702616}
  - {fileID: 1734572081990702596}
  - {fileID: 1734572081990702618}
  - {fileID: 1734572081990702598}
  - {fileID: 1734572081990702620}
  - {fileID: 1734572081990702592}
  - {fileID: 1734572081990702600}
  - {fileID: 1734572081990702602}
  - {fileID: 1734572081990702698}
  - {fileID: 1734572081990702644}
  m_BlendShapeWeights: []
  m_RootBone: {fileID: 1734572081990702702}
  m_AABB:
    m_Center: {x: -0.45585322, y: -0.05068639, z: -0.00040316582}
    m_Extent: {x: 1.3746121, y: 0.4558995, z: 1.2751098}
  m_DirtyAABB: 0
--- !u!1 &1734572081990470560
GameObject:
  m_ObjectHideFlags: 0
  m_CorrespondingSourceObject: {fileID: 0}
  m_PrefabInstance: {fileID: 0}
  m_PrefabAsset: {fileID: 0}
  serializedVersion: 6
  m_Component:
  - component: {fileID: 1734572081990702656}
  m_Layer: 0
  m_Name: RigRArmDigit42
  m_TagString: Untagged
  m_Icon: {fileID: 0}
  m_NavMeshLayer: 0
  m_StaticEditorFlags: 0
  m_IsActive: 1
--- !u!4 &1734572081990702656
Transform:
  m_ObjectHideFlags: 0
  m_CorrespondingSourceObject: {fileID: 0}
  m_PrefabInstance: {fileID: 0}
  m_PrefabAsset: {fileID: 0}
  m_GameObject: {fileID: 1734572081990470560}
  m_LocalRotation: {x: -0.0029637995, y: -0.01685445, z: 0.10367365, w: 0.99446416}
  m_LocalPosition: {x: -0.100625455, y: 0.000000076293944, z: -0.00000034332274}
  m_LocalScale: {x: 0.99999696, y: 1.0000006, z: 1.0000023}
  m_Children:
  - {fileID: 1734572081990702658}
  m_Father: {fileID: 1734572081990702670}
  m_RootOrder: 0
  m_LocalEulerAnglesHint: {x: 0, y: 0, z: 0}
--- !u!1 &1734572081990470562
GameObject:
  m_ObjectHideFlags: 0
  m_CorrespondingSourceObject: {fileID: 0}
  m_PrefabInstance: {fileID: 0}
  m_PrefabAsset: {fileID: 0}
  serializedVersion: 6
  m_Component:
  - component: {fileID: 1734572081990702658}
  m_Layer: 0
  m_Name: RigRArmDigit43
  m_TagString: Untagged
  m_Icon: {fileID: 0}
  m_NavMeshLayer: 0
  m_StaticEditorFlags: 0
  m_IsActive: 1
--- !u!4 &1734572081990702658
Transform:
  m_ObjectHideFlags: 0
  m_CorrespondingSourceObject: {fileID: 0}
  m_PrefabInstance: {fileID: 0}
  m_PrefabAsset: {fileID: 0}
  m_GameObject: {fileID: 1734572081990470562}
  m_LocalRotation: {x: -0.009060907, y: -0.026893953, z: 0.036392912, w: 0.99893457}
  m_LocalPosition: {x: -0.11476982, y: 0, z: -0.00000036239624}
  m_LocalScale: {x: 0.9999972, y: 1.0000008, z: 1.0000019}
  m_Children: []
  m_Father: {fileID: 1734572081990702656}
  m_RootOrder: 0
  m_LocalEulerAnglesHint: {x: 0, y: 0, z: 0}
--- !u!1 &1734572081990470564
GameObject:
  m_ObjectHideFlags: 0
  m_CorrespondingSourceObject: {fileID: 0}
  m_PrefabInstance: {fileID: 0}
  m_PrefabAsset: {fileID: 0}
  serializedVersion: 6
  m_Component:
  - component: {fileID: 1734572081990702660}
  m_Layer: 0
  m_Name: RigRArmPalm
  m_TagString: Untagged
  m_Icon: {fileID: 0}
  m_NavMeshLayer: 0
  m_StaticEditorFlags: 0
  m_IsActive: 1
--- !u!4 &1734572081990702660
Transform:
  m_ObjectHideFlags: 0
  m_CorrespondingSourceObject: {fileID: 0}
  m_PrefabInstance: {fileID: 0}
  m_PrefabAsset: {fileID: 0}
  m_GameObject: {fileID: 1734572081990470564}
  m_LocalRotation: {x: 0.8119082, y: -0.09909143, z: 0.13761018, w: 0.55861384}
  m_LocalPosition: {x: -0.23772033, y: 0.0000008392334, z: 0.0000009155273}
  m_LocalScale: {x: 0.9999983, y: 0.9999999, z: 1.0000019}
  m_Children:
  - {fileID: 1734572081990702716}
  - {fileID: 1734572081990702706}
  - {fileID: 1734572081990702664}
  - {fileID: 1734572081990702670}
  m_Father: {fileID: 1734572081990702694}
  m_RootOrder: 0
  m_LocalEulerAnglesHint: {x: 0, y: 0, z: 0}
--- !u!1 &1734572081990470566
GameObject:
  m_ObjectHideFlags: 0
  m_CorrespondingSourceObject: {fileID: 0}
  m_PrefabInstance: {fileID: 0}
  m_PrefabAsset: {fileID: 0}
  serializedVersion: 6
  m_Component:
  - component: {fileID: 1734572081990702662}
  m_Layer: 0
  m_Name: RigRArmPalmGizmo
  m_TagString: Untagged
  m_Icon: {fileID: 0}
  m_NavMeshLayer: 0
  m_StaticEditorFlags: 0
  m_IsActive: 1
--- !u!4 &1734572081990702662
Transform:
  m_ObjectHideFlags: 0
  m_CorrespondingSourceObject: {fileID: 0}
  m_PrefabInstance: {fileID: 0}
  m_PrefabAsset: {fileID: 0}
  m_GameObject: {fileID: 1734572081990470566}
  m_LocalRotation: {x: 0.7154006, y: 0.69871455, z: -0.000060486844, w: -0.00005984666}
  m_LocalPosition: {x: 0.91280943, y: 0.91720366, z: -0.061190706}
  m_LocalScale: {x: 0.9999991, y: 0.99999994, z: 1.000001}
  m_Children: []
  m_Father: {fileID: 1734572081990702632}
  m_RootOrder: 13
  m_LocalEulerAnglesHint: {x: 0, y: 0, z: 0}
--- !u!1 &1734572081990470568
GameObject:
  m_ObjectHideFlags: 0
  m_CorrespondingSourceObject: {fileID: 0}
  m_PrefabInstance: {fileID: 0}
  m_PrefabAsset: {fileID: 0}
  serializedVersion: 6
  m_Component:
  - component: {fileID: 1734572081990702664}
  m_Layer: 0
  m_Name: RigRArmDigit31
  m_TagString: Untagged
  m_Icon: {fileID: 0}
  m_NavMeshLayer: 0
  m_StaticEditorFlags: 0
  m_IsActive: 1
--- !u!4 &1734572081990702664
Transform:
  m_ObjectHideFlags: 0
  m_CorrespondingSourceObject: {fileID: 0}
  m_PrefabInstance: {fileID: 0}
  m_PrefabAsset: {fileID: 0}
  m_GameObject: {fileID: 1734572081990470568}
  m_LocalRotation: {x: 0.00043754687, y: 0.012151789, z: 0.027255043, w: 0.9995546}
  m_LocalPosition: {x: -0.22620307, y: 0.00000030517577, z: 0.013450455}
  m_LocalScale: {x: 0.9999979, y: 1, z: 1.000002}
  m_Children:
  - {fileID: 1734572081990702666}
  m_Father: {fileID: 1734572081990702660}
  m_RootOrder: 2
  m_LocalEulerAnglesHint: {x: 0, y: 0, z: 0}
--- !u!1 &1734572081990470570
GameObject:
  m_ObjectHideFlags: 0
  m_CorrespondingSourceObject: {fileID: 0}
  m_PrefabInstance: {fileID: 0}
  m_PrefabAsset: {fileID: 0}
  serializedVersion: 6
  m_Component:
  - component: {fileID: 1734572081990702666}
  m_Layer: 0
  m_Name: RigRArmDigit32
  m_TagString: Untagged
  m_Icon: {fileID: 0}
  m_NavMeshLayer: 0
  m_StaticEditorFlags: 0
  m_IsActive: 1
--- !u!4 &1734572081990702666
Transform:
  m_ObjectHideFlags: 0
  m_CorrespondingSourceObject: {fileID: 0}
  m_PrefabInstance: {fileID: 0}
  m_PrefabAsset: {fileID: 0}
  m_GameObject: {fileID: 1734572081990470570}
  m_LocalRotation: {x: -0.002166957, y: -0.011967919, z: 0.11538287, w: 0.9932467}
  m_LocalPosition: {x: -0.118495904, y: 0.00000030517577, z: -0.00000044822693}
  m_LocalScale: {x: 0.99999744, y: 1.0000008, z: 1.0000019}
  m_Children:
  - {fileID: 1734572081990702668}
  m_Father: {fileID: 1734572081990702664}
  m_RootOrder: 0
  m_LocalEulerAnglesHint: {x: 0, y: 0, z: 0}
--- !u!1 &1734572081990470572
GameObject:
  m_ObjectHideFlags: 0
  m_CorrespondingSourceObject: {fileID: 0}
  m_PrefabInstance: {fileID: 0}
  m_PrefabAsset: {fileID: 0}
  serializedVersion: 6
  m_Component:
  - component: {fileID: 1734572081990702668}
  m_Layer: 0
  m_Name: RigRArmDigit33
  m_TagString: Untagged
  m_Icon: {fileID: 0}
  m_NavMeshLayer: 0
  m_StaticEditorFlags: 0
  m_IsActive: 1
--- !u!4 &1734572081990702668
Transform:
  m_ObjectHideFlags: 0
  m_CorrespondingSourceObject: {fileID: 0}
  m_PrefabInstance: {fileID: 0}
  m_PrefabAsset: {fileID: 0}
  m_GameObject: {fileID: 1734572081990470572}
  m_LocalRotation: {x: -0.0000013295577, y: -0.0000027953874, z: 0.031616412, w: 0.9995001}
  m_LocalPosition: {x: -0.11131584, y: 0.000000076293944, z: -0.0000003480911}
  m_LocalScale: {x: 0.9999973, y: 1.000001, z: 1.0000019}
  m_Children: []
  m_Father: {fileID: 1734572081990702666}
  m_RootOrder: 0
  m_LocalEulerAnglesHint: {x: 0, y: 0, z: 0}
--- !u!1 &1734572081990470574
GameObject:
  m_ObjectHideFlags: 0
  m_CorrespondingSourceObject: {fileID: 0}
  m_PrefabInstance: {fileID: 0}
  m_PrefabAsset: {fileID: 0}
  serializedVersion: 6
  m_Component:
  - component: {fileID: 1734572081990702670}
  m_Layer: 0
  m_Name: RigRArmDigit41
  m_TagString: Untagged
  m_Icon: {fileID: 0}
  m_NavMeshLayer: 0
  m_StaticEditorFlags: 0
  m_IsActive: 1
--- !u!4 &1734572081990702670
Transform:
  m_ObjectHideFlags: 0
  m_CorrespondingSourceObject: {fileID: 0}
  m_PrefabInstance: {fileID: 0}
  m_PrefabAsset: {fileID: 0}
  m_GameObject: {fileID: 1734572081990470574}
  m_LocalRotation: {x: 0.0019321126, y: 0.04543404, z: 0.034203332, w: 0.99837977}
  m_LocalPosition: {x: -0.22620238, y: 0, z: 0.16442464}
  m_LocalScale: {x: 0.99999726, y: 1.0000001, z: 1.0000026}
  m_Children:
  - {fileID: 1734572081990702656}
  m_Father: {fileID: 1734572081990702660}
  m_RootOrder: 3
  m_LocalEulerAnglesHint: {x: 0, y: 0, z: 0}
--- !u!1 &1734572081990470576
GameObject:
  m_ObjectHideFlags: 0
  m_CorrespondingSourceObject: {fileID: 0}
  m_PrefabInstance: {fileID: 0}
  m_PrefabAsset: {fileID: 0}
  serializedVersion: 6
  m_Component:
  - component: {fileID: 1734572081990702672}
  m_Layer: 0
  m_Name: RigRLegAnkle
  m_TagString: Untagged
  m_Icon: {fileID: 0}
  m_NavMeshLayer: 0
  m_StaticEditorFlags: 0
  m_IsActive: 1
--- !u!4 &1734572081990702672
Transform:
  m_ObjectHideFlags: 0
  m_CorrespondingSourceObject: {fileID: 0}
  m_PrefabInstance: {fileID: 0}
  m_PrefabAsset: {fileID: 0}
  m_GameObject: {fileID: 1734572081990470576}
  m_LocalRotation: {x: 0.042560946, y: -0.12834378, z: -0.5345121, w: 0.8342742}
  m_LocalPosition: {x: -0.2878958, y: 0.0000000047683715, z: -0.000000038146972}
  m_LocalScale: {x: 1.000006, y: 1.0000019, z: 0.99999195}
  m_Children:
  - {fileID: 1734572081990702676}
  m_Father: {fileID: 1734572081990702686}
  m_RootOrder: 0
  m_LocalEulerAnglesHint: {x: 0, y: 0, z: 0}
--- !u!1 &1734572081990470578
GameObject:
  m_ObjectHideFlags: 0
  m_CorrespondingSourceObject: {fileID: 0}
  m_PrefabInstance: {fileID: 0}
  m_PrefabAsset: {fileID: 0}
  serializedVersion: 6
  m_Component:
  - component: {fileID: 1734572081990702674}
  m_Layer: 0
  m_Name: RigRLegPlatform
  m_TagString: Untagged
  m_Icon: {fileID: 0}
  m_NavMeshLayer: 0
  m_StaticEditorFlags: 0
  m_IsActive: 1
--- !u!4 &1734572081990702674
Transform:
  m_ObjectHideFlags: 0
  m_CorrespondingSourceObject: {fileID: 0}
  m_PrefabInstance: {fileID: 0}
  m_PrefabAsset: {fileID: 0}
  m_GameObject: {fileID: 1734572081990470578}
  m_LocalRotation: {x: 0.50000006, y: -0.50000006, z: -0.49999997, w: 0.49999997}
  m_LocalPosition: {x: 0.37663656, y: 9.711092e-10, z: -0.02221645}
  m_LocalScale: {x: 1, y: 1, z: 1}
  m_Children: []
  m_Father: {fileID: 1734572081990702632}
  m_RootOrder: 15
  m_LocalEulerAnglesHint: {x: 0, y: 0, z: 0}
--- !u!1 &1734572081990470580
GameObject:
  m_ObjectHideFlags: 0
  m_CorrespondingSourceObject: {fileID: 0}
  m_PrefabInstance: {fileID: 0}
  m_PrefabAsset: {fileID: 0}
  serializedVersion: 6
  m_Component:
  - component: {fileID: 1734572081990702676}
  m_Layer: 0
  m_Name: RigRLegToes1
  m_TagString: Untagged
  m_Icon: {fileID: 0}
  m_NavMeshLayer: 0
  m_StaticEditorFlags: 0
  m_IsActive: 1
--- !u!4 &1734572081990702676
Transform:
  m_ObjectHideFlags: 0
  m_CorrespondingSourceObject: {fileID: 0}
  m_PrefabInstance: {fileID: 0}
  m_PrefabAsset: {fileID: 0}
  m_GameObject: {fileID: 1734572081990470580}
  m_LocalRotation: {x: -0.000000054885856, y: 0.0000000062497176, z: -0.2701981, w: 0.96280473}
  m_LocalPosition: {x: -0.23863237, y: 0, z: 0.000000038146972}
  m_LocalScale: {x: 1, y: 1, z: 1}
  m_Children: []
  m_Father: {fileID: 1734572081990702672}
  m_RootOrder: 0
  m_LocalEulerAnglesHint: {x: 0, y: 0, z: 0}
--- !u!1 &1734572081990470582
GameObject:
  m_ObjectHideFlags: 0
  m_CorrespondingSourceObject: {fileID: 0}
  m_PrefabInstance: {fileID: 0}
  m_PrefabAsset: {fileID: 0}
  serializedVersion: 6
  m_Component:
  - component: {fileID: 1734572081990702678}
  m_Layer: 0
  m_Name: RigSpine1
  m_TagString: Untagged
  m_Icon: {fileID: 0}
  m_NavMeshLayer: 0
  m_StaticEditorFlags: 0
  m_IsActive: 1
--- !u!4 &1734572081990702678
Transform:
  m_ObjectHideFlags: 0
  m_CorrespondingSourceObject: {fileID: 0}
  m_PrefabInstance: {fileID: 0}
  m_PrefabAsset: {fileID: 0}
  m_GameObject: {fileID: 1734572081990470582}
  m_LocalRotation: {x: 2.3338803e-10, y: 0.000000004191875, z: 0.006233037, w: 0.99998057}
  m_LocalPosition: {x: -0.060590666, y: -0.108668394, z: 0.000000021158508}
  m_LocalScale: {x: 1.0000002, y: 1.0000002, z: 1}
  m_Children:
  - {fileID: 1734572081990703016}
  m_Father: {fileID: 1734572081990702702}
  m_RootOrder: 2
  m_LocalEulerAnglesHint: {x: 0, y: 0, z: 0}
--- !u!1 &1734572081990470584
GameObject:
  m_ObjectHideFlags: 0
  m_CorrespondingSourceObject: {fileID: 0}
  m_PrefabInstance: {fileID: 0}
  m_PrefabAsset: {fileID: 0}
  serializedVersion: 6
  m_Component:
  - component: {fileID: 1734572081990702680}
  m_Layer: 0
  m_Name: RigRibcage
  m_TagString: Untagged
  m_Icon: {fileID: 0}
  m_NavMeshLayer: 0
  m_StaticEditorFlags: 0
  m_IsActive: 1
--- !u!4 &1734572081990702680
Transform:
  m_ObjectHideFlags: 0
  m_CorrespondingSourceObject: {fileID: 0}
  m_PrefabInstance: {fileID: 0}
  m_PrefabAsset: {fileID: 0}
  m_GameObject: {fileID: 1734572081990470584}
  m_LocalRotation: {x: -0.0000000058913794, y: 0.00000001819391, z: -0.045658145, w: 0.99895716}
  m_LocalPosition: {x: -0.28925216, y: 0, z: 0}
  m_LocalScale: {x: 1.0000001, y: 1.0000001, z: 1}
  m_Children:
  - {fileID: 1734572081990702644}
  - {fileID: 1734572081990702700}
  - {fileID: 1734572081990702714}
  m_Father: {fileID: 1734572081990703018}
  m_RootOrder: 0
  m_LocalEulerAnglesHint: {x: 0, y: 0, z: 0}
--- !u!1 &1734572081990470586
GameObject:
  m_ObjectHideFlags: 0
  m_CorrespondingSourceObject: {fileID: 0}
  m_PrefabInstance: {fileID: 0}
  m_PrefabAsset: {fileID: 0}
  serializedVersion: 6
  m_Component:
  - component: {fileID: 1734572081990702682}
  m_Layer: 0
  m_Name: RigRibcageGizmo
  m_TagString: Untagged
  m_Icon: {fileID: 0}
  m_NavMeshLayer: 0
  m_StaticEditorFlags: 0
  m_IsActive: 1
--- !u!4 &1734572081990702682
Transform:
  m_ObjectHideFlags: 0
  m_CorrespondingSourceObject: {fileID: 0}
  m_PrefabInstance: {fileID: 0}
  m_PrefabAsset: {fileID: 0}
  m_GameObject: {fileID: 1734572081990470586}
  m_LocalRotation: {x: 0.5213338, y: -0.4777145, z: -0.52133375, w: 0.47771442}
  m_LocalPosition: {x: 0.000000008637026, y: 1.5904208, z: -0.19458675}
  m_LocalScale: {x: 1, y: 1, z: 1}
  m_Children: []
  m_Father: {fileID: 1734572081990702632}
  m_RootOrder: 14
  m_LocalEulerAnglesHint: {x: 0, y: 0, z: 0}
--- !u!1 &1734572081990470588
GameObject:
  m_ObjectHideFlags: 0
  m_CorrespondingSourceObject: {fileID: 0}
  m_PrefabInstance: {fileID: 0}
  m_PrefabAsset: {fileID: 0}
  serializedVersion: 6
  m_Component:
  - component: {fileID: 1734572081990702684}
  m_Layer: 0
  m_Name: RigRLeg1
  m_TagString: Untagged
  m_Icon: {fileID: 0}
  m_NavMeshLayer: 0
  m_StaticEditorFlags: 0
  m_IsActive: 1
--- !u!4 &1734572081990702684
Transform:
  m_ObjectHideFlags: 0
  m_CorrespondingSourceObject: {fileID: 0}
  m_PrefabInstance: {fileID: 0}
  m_PrefabAsset: {fileID: 0}
  m_GameObject: {fileID: 1734572081990470588}
  m_LocalRotation: {x: -0.05847644, y: 0.9893824, z: -0.018617162, w: -0.13174385}
  m_LocalPosition: {x: 0.09855217, y: 0.000000014719385, z: -0.23922352}
  m_LocalScale: {x: 1, y: 1, z: 1}
  m_Children:
  - {fileID: 1734572081990702686}
  m_Father: {fileID: 1734572081990702702}
  m_RootOrder: 1
  m_LocalEulerAnglesHint: {x: 0, y: 0, z: 0}
--- !u!1 &1734572081990470590
GameObject:
  m_ObjectHideFlags: 0
  m_CorrespondingSourceObject: {fileID: 0}
  m_PrefabInstance: {fileID: 0}
  m_PrefabAsset: {fileID: 0}
  serializedVersion: 6
  m_Component:
  - component: {fileID: 1734572081990702686}
  m_Layer: 0
  m_Name: RigRLeg2
  m_TagString: Untagged
  m_Icon: {fileID: 0}
  m_NavMeshLayer: 0
  m_StaticEditorFlags: 0
  m_IsActive: 1
--- !u!4 &1734572081990702686
Transform:
  m_ObjectHideFlags: 0
  m_CorrespondingSourceObject: {fileID: 0}
  m_PrefabInstance: {fileID: 0}
  m_PrefabAsset: {fileID: 0}
  m_GameObject: {fileID: 1734572081990470590}
  m_LocalRotation: {x: -0.008269715, y: 0.0035947703, z: 0.11559572, w: 0.99325544}
  m_LocalPosition: {x: -0.2383723, y: 0, z: 0.000000076293944}
  m_LocalScale: {x: 1.0000011, y: 0.9999991, z: 0.9999999}
  m_Children:
  - {fileID: 1734572081990702672}
  m_Father: {fileID: 1734572081990702684}
  m_RootOrder: 0
  m_LocalEulerAnglesHint: {x: 0, y: 0, z: 0}
--- !u!1001 &5453159604818803042
PrefabInstance:
  m_ObjectHideFlags: 0
  serializedVersion: 2
  m_Modification:
    m_TransformParent: {fileID: 1734572081990702632}
    m_Modifications:
    - target: {fileID: 1454150539096614824, guid: d3a3e44208fbbad47a94151423d48158, type: 3}
      propertyPath: m_RootOrder
      value: 17
      objectReference: {fileID: 0}
    - target: {fileID: 1454150539096614824, guid: d3a3e44208fbbad47a94151423d48158, type: 3}
      propertyPath: m_LocalPosition.x
      value: 0
      objectReference: {fileID: 0}
    - target: {fileID: 1454150539096614824, guid: d3a3e44208fbbad47a94151423d48158, type: 3}
      propertyPath: m_LocalPosition.y
      value: 3
      objectReference: {fileID: 0}
    - target: {fileID: 1454150539096614824, guid: d3a3e44208fbbad47a94151423d48158, type: 3}
      propertyPath: m_LocalPosition.z
      value: -0.8
      objectReference: {fileID: 0}
    - target: {fileID: 1454150539096614824, guid: d3a3e44208fbbad47a94151423d48158, type: 3}
      propertyPath: m_LocalRotation.w
      value: 1
      objectReference: {fileID: 0}
    - target: {fileID: 1454150539096614824, guid: d3a3e44208fbbad47a94151423d48158, type: 3}
      propertyPath: m_LocalRotation.x
      value: 0
      objectReference: {fileID: 0}
    - target: {fileID: 1454150539096614824, guid: d3a3e44208fbbad47a94151423d48158, type: 3}
      propertyPath: m_LocalRotation.y
      value: 0
      objectReference: {fileID: 0}
    - target: {fileID: 1454150539096614824, guid: d3a3e44208fbbad47a94151423d48158, type: 3}
      propertyPath: m_LocalRotation.z
      value: 0
      objectReference: {fileID: 0}
    - target: {fileID: 1454150539096614824, guid: d3a3e44208fbbad47a94151423d48158, type: 3}
      propertyPath: m_LocalEulerAnglesHint.x
      value: 0
      objectReference: {fileID: 0}
    - target: {fileID: 1454150539096614824, guid: d3a3e44208fbbad47a94151423d48158, type: 3}
      propertyPath: m_LocalEulerAnglesHint.y
      value: 0
      objectReference: {fileID: 0}
    - target: {fileID: 1454150539096614824, guid: d3a3e44208fbbad47a94151423d48158, type: 3}
      propertyPath: m_LocalEulerAnglesHint.z
      value: 0
      objectReference: {fileID: 0}
    - target: {fileID: 6298484691904365086, guid: d3a3e44208fbbad47a94151423d48158, type: 3}
      propertyPath: m_Name
      value: hpBg
      objectReference: {fileID: 0}
    m_RemovedComponents: []
  m_SourcePrefab: {fileID: 100100000, guid: d3a3e44208fbbad47a94151423d48158, type: 3}
--- !u!4 &6882535907232063178 stripped
Transform:
  m_CorrespondingSourceObject: {fileID: 1454150539096614824, guid: d3a3e44208fbbad47a94151423d48158, type: 3}
  m_PrefabInstance: {fileID: 5453159604818803042}
  m_PrefabAsset: {fileID: 0}
